adm3_fr,adm3_pcode,adm2_fr,adm2_pcode,adm1_fr,adm1_pcode,surf_km2,pop_count,ind1_RNI,ind1_missingvalues,ind2_RCI,ind2_missingvalues,ind4_GT,ind4_missingvalues,ind7_PA,ind7_missingvalues,ind8_MI,ind8_missingvalues,ind10_SCAw,ind10_missingvalues,ind11_TR,ind11_missingvalues,LVI,LVI_missingvalues,,
Bafoulabe,ML010101,Bafoulabe,ML0101,Kayes,ML01,1406,0,"0,10",0,"0,60",0,"0,78",0,"0,86",0,"0,69",0,"0,61",0,"0,08",0,"0,47",0
Bamafélé,ML010102,Bafoulabe,ML0101,Kayes,ML01,1842,0,"0,05",0,"0,80",0,"0,71",0,"0,73",0,"0,78",0,"0,65",0,"0,18",0,"0,44",0
Diakon,ML010103,Bafoulabe,ML0101,Kayes,ML01,1891,0,"0,07",0,"0,04",0,"0,71",0,"0,66",0,"0,64",0,"0,38",0,"0,02",0,"0,64",0
Diallan,ML010104,Bafoulabe,ML0101,Kayes,ML01,920,0,"0,09",0,0,0,"0,65",0,"0,74",0,"0,74",0,"0,48",0,"0,01",0,"0,61",0
Diokeli,ML010105,Bafoulabe,ML0101,Kayes,ML01,446,0,"0,03",0,"0,84",0,"0,70",0,"0,64",0,"0,80",0,"0,82",0,"0,23",0,"0,42",0
Gounfan,ML010106,Bafoulabe,ML0101,Kayes,ML01,739,0,"0,09",0,"0,44",0,"0,80",0,"0,81",0,"0,79",0,"0,66",0,"0,09",0,"0,47",0
Kontéla,ML010107,Bafoulabe,ML0101,Kayes,ML01,1062,0,"0,09",0,0,0,"0,61",0,"0,74",0,"0,41",0,"0,47",0,"0,03",0,"0,66",0
Koundian,ML010108,Bafoulabe,ML0101,Kayes,ML01,2204,0,"0,07",0,"0,07",0,"0,79",0,"0,57",0,"0,69",0,"0,65",0,"0,02",0,"0,59",0
Mahina,ML010109,Bafoulabe,ML0101,Kayes,ML01,2347,0,"0,08",0,"0,67",0,"0,77",0,"0,81",0,"0,84",0,"0,82",0,"0,12",0,"0,41",0
Niambia,ML010110,Bafoulabe,ML0101,Kayes,ML01,1192,0,"0,07",0,0,0,"0,80",0,"0,72",0,"0,78",0,"0,63",0,"0,06",0,"0,56",0
Dinlin Oualia,ML010111,Bafoulabe,ML0101,Kayes,ML01,3425,0,"0,07",0,"0,36",0,"0,66",0,"0,75",0,"0,60",0,"0,59",0,"0,02",0,"0,56",0
Sidibela,ML010112,Bafoulabe,ML0101,Kayes,ML01,382,0,"0,14",0,"0,34",0,"0,79",0,"0,97",0,"0,70",0,"0,48",0,"0,08",0,"0,50",0
Tomora,ML010113,Bafoulabe,ML0101,Kayes,ML01,1946,0,"0,08",0,"0,06",0,"0,58",0,"0,73",0,"0,52",0,"0,11",0,"0,02",0,"0,70",0
Béma,ML010201,Diéma,ML0102,Kayes,ML01,1078,0,"0,06",0,"0,70",0,"0,84",0,"0,65",0,"0,89",0,"0,36",0,"0,06",0,"0,49",0
Diangounté Camara,ML010202,Diéma,ML0102,Kayes,ML01,932,0,"0,07",0,"0,83",0,"0,74",0,"0,68",0,"0,93",0,"0,42",0,"0,06",0,"0,47",0
Dianguirdé,ML010203,Diéma,ML0102,Kayes,ML01,1496,0,"0,08",0,"0,30",0,"0,70",0,"0,60",0,"0,93",0,"0,33",0,"0,05",0,"0,57",0
Diema,ML010204,Diéma,ML0102,Kayes,ML01,1294,0,"0,05",0,"0,78",0,"0,73",0,"0,66",0,"0,93",0,"0,38",0,"0,19",0,"0,47",0
Diéoura,ML010205,Diéma,ML0102,Kayes,ML01,562,0,"0,06",0,"0,26",0,"0,68",0,"0,78",0,"0,84",0,"0,47",0,"0,03",0,"0,55",0
Dioumara Koussata,ML010206,Diéma,ML0102,Kayes,ML01,2339,0,"0,08",0,"0,16",0,"0,62",0,"0,72",0,"0,94",0,"0,46",0,"0,05",0,"0,57",0
Fassoudebé,ML010207,Diéma,ML0102,Kayes,ML01,198,0,"0,04",0,1,0,"0,86",0,"0,46",0,"0,89",0,"0,35",0,"0,24",0,"0,45",0
Fatao,ML010208,Diéma,ML0102,Kayes,ML01,287,0,"0,06",0,1,0,"0,69",0,"0,70",0,"0,86",0,"0,20",0,"0,17",0,"0,47",0
Gomitradougou,ML010209,Diéma,ML0102,Kayes,ML01,1225,0,"0,05",0,"0,72",0,"0,56",0,"0,56",0,"0,92",0,"0,48",0,"0,07",0,"0,52",0
Grouméra,ML010210,Diéma,ML0102,Kayes,ML01,691,0,"0,07",0,0,0,"0,77",0,"0,48",0,"0,94",0,"0,18",0,"0,04",0,"0,65",0
Guédébiné,ML010211,Diéma,ML0102,Kayes,ML01,118,0,"0,07",0,1,0,"0,85",0,"0,76",0,"0,84",0,"0,43",0,"0,17",0,"0,41",0
Lakamané,ML010212,Diéma,ML0102,Kayes,ML01,1528,0,"0,06",0,"0,57",0,"0,73",0,"0,62",0,"0,87",0,"0,47",0,"0,07",0,"0,52",0
Lambidou,ML010213,Diéma,ML0102,Kayes,ML01,583,0,"0,04",0,1,0,"0,69",0,"0,57",0,"0,91",0,"0,38",0,"0,06",0,"0,48",0
Madiga Sacko,ML010214,Diéma,ML0102,Kayes,ML01,288,0,"0,05",0,"0,87",0,"0,57",0,"0,51",0,"0,94",0,"0,43",0,"0,04",0,"0,51",0
Sansankidé,ML010215,Diéma,ML0102,Kayes,ML01,207,0,"0,07",0,"0,91",0,"0,71",0,"0,56",0,"0,77",0,"0,47",0,"0,08",0,"0,49",0
Bangassi,ML010301,Kayes,ML0103,Kayes,ML01,1078,0,"0,06",0,"0,89",0,"0,98",0,"0,83",0,"0,91",0,"0,49",0,"0,31",0,"0,36",0
Colimbiné,ML010302,Kayes,ML0103,Kayes,ML01,310,0,"0,08",0,1,0,"0,95",0,"0,85",0,"0,89",0,"0,52",0,"0,09",0,"0,37",0
Diamou,ML010303,Kayes,ML0103,Kayes,ML01,2397,0,"0,07",0,"0,43",0,"0,91",0,"0,74",0,"0,67",0,"0,59",0,"0,04",0,"0,51",0
Djélébou,ML010304,Kayes,ML0103,Kayes,ML01,890,0,"0,10",0,"0,23",0,"0,89",0,"0,64",0,"0,84",0,"0,38",0,"0,07",0,"0,55",0
Falémé,ML010305,Kayes,ML0103,Kayes,ML01,683,0,"0,14",0,"0,29",0,1,0,"0,96",0,"0,89",0,"0,50",0,"0,16",0,"0,44",0
Fégui,ML010306,Kayes,ML0103,Kayes,ML01,64,0,"0,18",0,"0,04",0,"0,96",0,"0,96",0,"0,82",0,"0,48",0,"0,49",0,"0,44",0
Gory Gopéla,ML010307,Kayes,ML0103,Kayes,ML01,336,0,"0,10",0,1,0,"0,95",0,"0,95",0,"0,88",0,"0,45",0,"0,13",0,"0,36",0
Gouméra,ML010308,Kayes,ML0103,Kayes,ML01,97,0,"0,19",0,1,0,"0,96",0,"0,99",0,"0,83",0,"0,48",0,"0,27",0,"0,33",0
Guidimakan Keri Kaff,ML010309,Kayes,ML0103,Kayes,ML01,1179,0,"0,13",0,"0,01",0,"0,91",0,"0,94",0,"0,89",0,"0,42",0,"0,11",0,"0,51",0
Hawa Dembaya,ML010310,Kayes,ML0103,Kayes,ML01,195,0,"0,06",0,1,0,"0,98",0,"0,89",0,"0,62",0,"0,64",0,"0,27",0,"0,36",0
Karakoro,ML010311,Kayes,ML0103,Kayes,ML01,908,0,"0,08",0,"0,48",0,"0,82",0,"0,68",0,"0,81",0,"0,44",0,"0,16",0,"0,50",0
Kayes,ML010312,Kayes,ML0103,Kayes,ML01,36,0,"0,54",0,1,0,"0,99",0,1,0,"0,91",0,"0,76",0,"0,87",0,"0,13",0
Kéméné Tambo,ML010313,Kayes,ML0103,Kayes,ML01,566,0,"0,12",0,"0,75",0,"0,92",0,"0,96",0,"0,95",0,"0,38",0,"0,11",0,"0,40",0
Khouloum,ML010314,Kayes,ML0103,Kayes,ML01,203,0,"0,14",0,1,0,"0,99",0,"0,98",0,"0,83",0,"0,49",0,"0,32",0,"0,32",0
Koniakary,ML010315,Kayes,ML0103,Kayes,ML01,29,0,"0,34",0,"0,98",0,"0,89",0,1,0,"0,92",0,"0,33",0,"0,71",0,"0,26",0
Koussané,ML010316,Kayes,ML0103,Kayes,ML01,3145,0,"0,09",0,"0,08",0,"0,89",0,"0,70",0,"0,88",0,"0,24",0,"0,01",0,"0,59",0
Liberté Dembaya,ML010317,Kayes,ML0103,Kayes,ML01,230,0,"0,09",0,1,0,"0,98",0,"0,92",0,"0,70",0,"0,66",0,"0,23",0,"0,34",0
Logo,ML010318,Kayes,ML0103,Kayes,ML01,385,0,"0,04",0,1,0,"0,95",0,"0,73",0,"0,83",0,"0,58",0,"0,13",0,"0,39",0
Maréna Diombougou,ML010319,Kayes,ML0103,Kayes,ML01,249,0,"0,14",0,"0,68",0,"0,90",0,"0,94",0,"0,89",0,"0,50",0,"0,19",0,"0,39",0
Marintoumania,ML010320,Kayes,ML0103,Kayes,ML01,594,0,"0,07",0,"0,65",0,"0,89",0,"0,82",0,"0,75",0,"0,24",0,"0,09",0,"0,50",0
Sadiola,ML010321,Kayes,ML0103,Kayes,ML01,5109,0,"0,08",0,"0,31",0,"0,86",0,"0,82",0,"0,81",0,"0,78",0,"0,09",0,"0,46",0
Sahel,ML010322,Kayes,ML0103,Kayes,ML01,854,0,"0,10",0,"0,44",0,"0,79",0,"0,68",0,"0,86",0,"0,47",0,"0,09",0,"0,51",0
Samé Diomgoma,ML010323,Kayes,ML0103,Kayes,ML01,767,0,"0,11",0,"0,20",0,"0,97",0,"0,92",0,"0,92",0,"0,54",0,"0,09",0,"0,47",0
Ségala,ML010324,Kayes,ML0103,Kayes,ML01,1123,0,"0,08",0,"0,54",0,"0,91",0,"0,71",0,"0,81",0,"0,69",0,"0,10",0,"0,45",0
Séro Siamanou,ML010325,Kayes,ML0103,Kayes,ML01,915,0,"0,09",0,"0,88",0,"0,89",0,"0,80",0,"0,89",0,"0,24",0,"0,06",0,"0,45",0
Somankidy,ML010326,Kayes,ML0103,Kayes,ML01,5,0,"0,55",0,"0,47",0,"0,95",0,1,0,"0,94",0,"0,56",0,"0,97",0,"0,22",0
Sony,ML010327,Kayes,ML0103,Kayes,ML01,201,0,"0,13",0,"0,23",0,"0,93",0,"0,90",0,"0,88",0,"0,46",0,"0,17",0,"0,47",0
Tafacirga,ML010328,Kayes,ML0103,Kayes,ML01,105,0,"0,22",0,0,0,"0,93",0,1,0,"0,86",0,"0,48",0,"0,15",0,"0,48",0
Baye,ML010401,Kéniéba,ML0104,Kayes,ML01,1255,0,"0,03",0,"0,53",0,"0,86",0,"0,44",0,"0,68",0,"0,52",0,"0,05",0,"0,55",0
Dabia,ML010402,Kéniéba,ML0104,Kayes,ML01,583,0,"0,11",0,"0,38",0,"0,92",0,"0,89",0,"0,53",0,"0,57",0,"0,11",0,"0,50",0
Dialafara,ML010403,Kéniéba,ML0104,Kayes,ML01,2445,0,"0,09",0,"0,30",0,"0,87",0,"0,80",0,"0,77",0,"0,56",0,"0,02",0,"0,51",0
Dombia,ML010404,Kéniéba,ML0104,Kayes,ML01,139,0,"0,07",0,0,0,"0,88",0,"0,68",0,0,0,"0,52",0,"0,24",0,"0,66",0
Faléa,ML010405,Kéniéba,ML0104,Kayes,ML01,1858,0,"0,04",0,0,0,"0,82",0,"0,45",0,"0,35",0,"0,62",0,"0,04",0,"0,67",0
Faraba,ML010406,Kéniéba,ML0104,Kayes,ML01,1167,0,"0,08",0,"0,41",0,"0,85",0,"0,63",0,"0,58",0,"0,59",0,"0,04",0,"0,55",0
Guenegoré,ML010407,Kéniéba,ML0104,Kayes,ML01,320,0,"0,12",0,"0,97",0,"0,89",0,"0,86",0,"0,61",0,"0,33",0,"0,16",0,"0,44",0
Kassama,ML010408,Kéniéba,ML0104,Kayes,ML01,995,0,"0,08",0,"0,26",0,"0,88",0,"0,78",0,"0,64",0,"0,65",0,"0,02",0,"0,53",0
Kéniéba,ML010409,Kéniéba,ML0104,Kayes,ML01,1240,0,"0,08",0,"0,81",0,"0,96",0,"0,79",0,"0,63",0,"0,73",0,"0,16",0,"0,40",0
Kouroukoto,ML010410,Kéniéba,ML0104,Kayes,ML01,2655,0,"0,05",0,"0,42",0,"0,76",0,"0,65",0,"0,70",0,"0,60",0,"0,03",0,"0,54",0
Sagalo,ML010411,Kéniéba,ML0104,Kayes,ML01,1483,0,"0,06",0,0,0,"0,78",0,"0,63",0,"0,59",0,"0,63",0,"0,01",0,"0,61",0
Sitakily,ML010412,Kéniéba,ML0104,Kayes,ML01,823,0,"0,12",0,"0,89",0,"0,91",0,"0,92",0,"0,77",0,"0,87",0,"0,20",0,"0,33",0
Badia,ML010501,Kita,ML0105,Kayes,ML01,156,0,"0,13",0,1,0,"0,66",0,"0,97",0,"0,88",0,"0,60",0,"0,15",0,"0,37",0
Bendougouba,ML010502,Kita,ML0105,Kayes,ML01,290,0,"0,15",0,1,0,"0,64",0,"0,99",0,"0,90",0,"0,72",0,"0,09",0,"0,36",0
Benkadi Founia,ML010503,Kita,ML0105,Kayes,ML01,337,0,"0,11",0,1,0,"0,63",0,"0,93",0,"0,92",0,"0,75",0,"0,15",0,"0,36",0
Boudofo,ML010504,Kita,ML0105,Kayes,ML01,251,0,"0,10",0,1,0,"0,64",0,"0,87",0,"0,78",0,"0,69",0,"0,36",0,"0,37",0
Bougarybaya,ML010505,Kita,ML0105,Kayes,ML01,461,0,"0,06",0,1,0,"0,50",0,"0,66",0,"0,86",0,"0,70",0,"0,08",0,"0,45",0
Dindanko,ML010506,Kita,ML0105,Kayes,ML01,1158,0,"0,07",0,"0,61",0,"0,65",0,"0,70",0,"0,82",0,"0,50",0,"0,04",0,"0,52",0
Djidian,ML010507,Kita,ML0105,Kayes,ML01,414,0,"0,13",0,1,0,"0,62",0,"0,95",0,"0,86",0,"0,72",0,"0,10",0,"0,38",0
Djougoun,ML010508,Kita,ML0105,Kayes,ML01,592,0,"0,06",0,"0,91",0,"0,68",0,"0,70",0,"0,87",0,"0,49",0,"0,08",0,"0,46",0
Gadougou I,ML010509,Kita,ML0105,Kayes,ML01,1907,0,"0,10",0,"0,59",0,"0,52",0,"0,80",0,"0,70",0,"0,56",0,"0,05",0,"0,53",0
Gadougou II,ML010510,Kita,ML0105,Kayes,ML01,1794,0,"0,07",0,"0,71",0,"0,56",0,"0,67",0,"0,74",0,"0,69",0,"0,05",0,"0,50",0
Guémoukouraba,ML010511,Kita,ML0105,Kayes,ML01,1190,0,"0,03",0,"0,17",0,"0,59",0,"0,54",0,"0,92",0,"0,44",0,"0,03",0,"0,61",0
Kassaro,ML010512,Kita,ML0105,Kayes,ML01,1310,0,"0,07",0,"0,60",0,"0,77",0,"0,79",0,"0,82",0,"0,71",0,"0,10",0,"0,45",0
Kita,ML010513,Kita,ML0105,Kayes,ML01,35,0,"0,59",0,1,0,"0,65",0,1,0,"0,64",0,"0,96",0,1,0,"0,17",0
Kita Nord,ML010514,Kita,ML0105,Kayes,ML01,121,0,"0,18",0,1,0,"0,63",0,1,0,"0,88",0,"0,78",0,"0,31",0,"0,32",0
Kita Ouest,ML010515,Kita,ML0105,Kayes,ML01,559,0,"0,05",0,1,0,"0,63",0,"0,72",0,"0,85",0,"0,73",0,"0,10",0,"0,42",0
Kobri,ML010516,Kita,ML0105,Kayes,ML01,1169,0,"0,07",0,"0,91",0,"0,59",0,"0,72",0,"0,82",0,"0,66",0,"0,07",0,"0,45",0
Kokofata,ML010517,Kita,ML0105,Kayes,ML01,1749,0,"0,10",0,"0,73",0,"0,54",0,"0,83",0,"0,74",0,"0,73",0,"0,03",0,"0,47",0
Kotouba,ML010518,Kita,ML0105,Kayes,ML01,1359,0,"0,02",0,0,0,"0,61",0,"0,34",0,"0,80",0,"0,68",0,"0,06",0,"0,64",0
Koulou,ML010519,Kita,ML0105,Kayes,ML01,2098,0,"0,06",0,"0,23",0,"0,43",0,"0,40",0,"0,51",0,"0,65",0,"0,02",0,"0,67",0
Kourounikoto,ML010520,Kita,ML0105,Kayes,ML01,847,0,"0,02",0,"0,78",0,"0,59",0,"0,47",0,"0,72",0,"0,56",0,"0,18",0,"0,53",0
Madina,ML010521,Kita,ML0105,Kayes,ML01,5875,0,"0,05",0,"0,37",0,"0,65",0,"0,60",0,"0,86",0,"0,73",0,"0,01",0,"0,53",0
Makano,ML010522,Kita,ML0105,Kayes,ML01,1278,0,"0,06",0,"0,55",0,"0,76",0,"0,65",0,"0,60",0,"0,73",0,"0,06",0,"0,51",0
Namala Guimba,ML010523,Kita,ML0105,Kayes,ML01,1248,0,"0,02",0,"0,41",0,"0,57",0,"0,49",0,"0,75",0,"0,63",0,"0,06",0,"0,58",0
Niantanso,ML010524,Kita,ML0105,Kayes,ML01,358,0,"0,12",0,"0,39",0,"0,66",0,"0,59",0,"0,74",0,"0,64",0,"0,15",0,"0,53",0
Saboula,ML010525,Kita,ML0105,Kayes,ML01,1374,0,"0,04",0,1,0,"0,57",0,"0,55",0,"0,77",0,"0,56",0,"0,06",0,"0,49",0
Sébékoro,ML010526,Kita,ML0105,Kayes,ML01,1970,0,"0,07",0,"0,98",0,"0,75",0,"0,79",0,"0,80",0,"0,78",0,"0,07",0,"0,39",0
Séféto Nord,ML010527,Kita,ML0105,Kayes,ML01,296,0,"0,09",0,"0,34",0,"0,60",0,"0,77",0,"0,87",0,"0,56",0,"0,07",0,"0,53",0
Séféto Ouest,ML010528,Kita,ML0105,Kayes,ML01,1945,0,"0,09",0,"0,38",0,"0,65",0,"0,75",0,"0,83",0,"0,54",0,"0,03",0,"0,53",0
Senko,ML010529,Kita,ML0105,Kayes,ML01,548,0,"0,03",0,1,0,"0,69",0,"0,51",0,"0,91",0,"0,70",0,"0,05",0,"0,44",0
Sirakoro,ML010530,Kita,ML0105,Kayes,ML01,1000,0,"0,06",0,"0,41",0,"0,72",0,"0,70",0,"0,81",0,"0,78",0,"0,14",0,"0,48",0
Souransan Tomoto,ML010531,Kita,ML0105,Kayes,ML01,168,0,"0,17",0,"0,79",0,"0,58",0,"0,98",0,"0,87",0,"0,62",0,"0,15",0,"0,41",0
Tambaga,ML010532,Kita,ML0105,Kayes,ML01,414,0,"0,08",0,1,0,"0,56",0,"0,73",0,"0,89",0,"0,70",0,"0,15",0,"0,41",0
Toukoto,ML010533,Kita,ML0105,Kayes,ML01,1485,0,"0,05",0,"0,88",0,"0,59",0,"0,50",0,"0,65",0,"0,63",0,"0,12",0,"0,51",0
Baniéré Koré,ML010601,Nioro,ML0106,Kayes,ML01,443,0,"0,05",0,0,0,"0,81",0,"0,55",0,"0,88",0,"0,35",0,"0,05",0,"0,62",0
Diabigué,ML010602,Nioro,ML0106,Kayes,ML01,375,0,"0,12",0,"0,33",0,"0,82",0,"0,85",0,"0,85",0,"0,37",0,"0,16",0,"0,50",0
Diarra,ML010603,Nioro,ML0106,Kayes,ML01,315,0,"0,10",0,0,0,"0,85",0,"0,86",0,"0,87",0,"0,42",0,"0,13",0,"0,54",0
Diaye Coura,ML010604,Nioro,ML0106,Kayes,ML01,779,0,"0,12",0,"0,12",0,"0,80",0,"0,89",0,"0,90",0,"0,33",0,"0,07",0,"0,54",0
Gavinané,ML010605,Nioro,ML0106,Kayes,ML01,815,0,"0,08",0,"0,51",0,"0,82",0,"0,89",0,"0,86",0,"0,40",0,"0,13",0,"0,47",0
Gogui,ML010606,Nioro,ML0106,Kayes,ML01,531,0,"0,13",0,"0,53",0,1,0,"0,95",0,"0,89",0,"0,44",0,"0,09",0,"0,43",0
Guétéma,ML010607,Nioro,ML0106,Kayes,ML01,194,0,"0,15",0,"0,26",0,"0,86",0,"0,99",0,"0,89",0,"0,37",0,"0,29",0,"0,46",0
Kadiaba Kadiel,ML010608,Nioro,ML0106,Kayes,ML01,194,0,"0,14",0,"0,75",0,"0,86",0,"0,92",0,"0,89",0,"0,45",0,"0,16",0,"0,40",0
Koréra Koré,ML010609,Nioro,ML0106,Kayes,ML01,1963,0,"0,07",0,0,0,"0,76",0,"0,50",0,"0,93",0,"0,13",0,"0,02",0,"0,66",0
Nioro,ML010610,Nioro,ML0106,Kayes,ML01,97,0,"0,28",0,"0,80",0,"0,89",0,1,0,"0,84",0,"0,93",0,"0,82",0,"0,21",0
Nioro Tougouné Rangaba,ML010611,Nioro,ML0106,Kayes,ML01,573,0,"0,07",0,"0,78",0,"0,88",0,"0,75",0,"0,85",0,"0,08",0,"0,07",0,"0,50",0
Sandaré,ML010612,Nioro,ML0106,Kayes,ML01,2418,0,"0,12",0,"0,42",0,"0,77",0,"0,92",0,"0,76",0,"0,44",0,"0,02",0,"0,51",0
Simbi,ML010613,Nioro,ML0106,Kayes,ML01,1374,0,"0,09",0,"0,07",0,"0,82",0,"0,71",0,"0,92",0,"0,12",0,"0,03",0,"0,61",0
Troungoumbé,ML010614,Nioro,ML0106,Kayes,ML01,93,0,"0,10",0,"0,28",0,"0,82",0,"0,95",0,"0,86",0,"0,42",0,"0,25",0,"0,47",0
Yéréré,ML010615,Nioro,ML0106,Kayes,ML01,418,0,"0,16",0,"0,57",0,"0,87",0,"0,96",0,"0,84",0,"0,50",0,"0,08",0,"0,43",0
Youri,ML010616,Nioro,ML0106,Kayes,ML01,40,0,"0,38",0,"0,78",0,"0,84",0,1,0,"0,84",0,"0,40",0,"0,69",0,"0,30",0
Diafounou Diongaga,ML010701,Yélimané,ML0107,Kayes,ML01,186,0,"0,11",0,0,0,"0,82",0,"0,95",0,"0,81",0,"0,38",0,"0,34",0,"0,51",0
Diafounou Gory,ML010702,Yélimané,ML0107,Kayes,ML01,539,0,"0,06",0,1,0,"0,81",0,"0,82",0,"0,86",0,"0,40",0,"0,22",0,"0,40",0
Fanga,ML010703,Yélimané,ML0107,Kayes,ML01,375,0,"0,09",0,0,0,"0,71",0,"0,82",0,"0,37",0,"0,42",0,"0,29",0,"0,61",0
Gory,ML010704,Yélimané,ML0107,Kayes,ML01,768,0,"0,10",0,"0,68",0,"0,79",0,"0,82",0,"0,86",0,"0,42",0,"0,08",0,"0,46",0
Guidime,ML010705,Yélimané,ML0107,Kayes,ML01,957,0,"0,07",0,"0,56",0,"0,76",0,"0,78",0,"0,57",0,"0,38",0,"0,11",0,"0,54",0
Kirané Kaniaga,ML010706,Yélimané,ML0107,Kayes,ML01,1220,0,"0,13",0,"0,27",0,"0,75",0,"0,90",0,"0,86",0,"0,35",0,"0,07",0,"0,52",0
Konsiga,ML010707,Yélimané,ML0107,Kayes,ML01,79,0,"0,14",0,1,0,"0,85",0,"0,97",0,"0,83",0,"0,41",0,"0,48",0,"0,33",0
Kremis,ML010708,Yélimané,ML0107,Kayes,ML01,490,0,"0,16",0,"0,30",0,"0,72",0,"0,98",0,"0,78",0,"0,40",0,"0,11",0,"0,51",0
Marekaffo,ML010709,Yélimané,ML0107,Kayes,ML01,132,0,"0,11",0,"0,99",0,"0,84",0,"0,90",0,"0,85",0,"0,40",0,"0,19",0,"0,39",0
Soumpou,ML010710,Yélimané,ML0107,Kayes,ML01,410,0,"0,09",0,0,0,"0,73",0,"0,84",0,"0,34",0,"0,43",0,"0,13",0,"0,64",0
Toya,ML010711,Yélimané,ML0107,Kayes,ML01,104,0,"0,18",0,"0,42",0,"0,78",0,"0,96",0,"0,87",0,"0,42",0,"0,51",0,"0,41",0
Tringa,ML010712,Yélimané,ML0107,Kayes,ML01,688,0,"0,09",0,"0,86",0,"0,86",0,"0,88",0,"0,55",0,"0,41",0,"0,29",0,"0,44",0
Banamba,ML020101,Banamba,ML0201,Koulikoro,ML02,547,0,"0,12",0,1,0,"0,63",0,"0,95",0,"0,89",0,"0,77",0,"0,23",0,"0,34",0
Ben Kadi,ML020102,Banamba,ML0201,Koulikoro,ML02,268,0,"0,06",0,"0,75",0,"0,70",0,"0,76",0,"0,91",0,"0,55",0,"0,21",0,"0,44",0
Boron,ML020103,Banamba,ML0201,Koulikoro,ML02,1879,0,"0,11",0,"0,28",0,"0,68",0,"0,84",0,"0,88",0,"0,29",0,"0,01",0,"0,56",0
Duguwolowula,ML020104,Banamba,ML0201,Koulikoro,ML02,578,0,"0,06",0,"0,76",0,"0,65",0,"0,64",0,"0,88",0,"0,63",0,"0,17",0,"0,46",0
Kiban,ML020105,Banamba,ML0201,Koulikoro,ML02,247,0,"0,10",0,"0,19",0,"0,61",0,"0,81",0,"0,88",0,"0,59",0,"0,42",0,"0,48",0
Madina Sacko,ML020106,Banamba,ML0201,Koulikoro,ML02,1025,0,"0,07",0,"0,39",0,"0,63",0,"0,64",0,"0,91",0,"0,58",0,"0,05",0,"0,53",0
Sebete,ML020107,Banamba,ML0201,Koulikoro,ML02,803,0,"0,07",0,"0,40",0,"0,65",0,"0,83",0,"0,95",0,"0,49",0,"0,11",0,"0,50",0
Toubacoro,ML020108,Banamba,ML0201,Koulikoro,ML02,1334,0,"0,10",0,"0,34",0,"0,62",0,"0,85",0,"0,96",0,"0,24",0,"0,02",0,"0,55",0
Toukoroba,ML020109,Banamba,ML0201,Koulikoro,ML02,1180,0,"0,08",0,"0,27",0,"0,68",0,"0,64",0,"0,94",0,"0,26",0,"0,02",0,"0,59",0
Banco,ML020201,Dioila,ML0202,Koulikoro,ML02,928,0,"0,03",0,1,0,"0,62",0,"0,38",0,"0,86",0,"0,62",0,"0,04",0,"0,49",0
Benkadi,ML020202,Dioila,ML0202,Koulikoro,ML02,156,0,"0,04",0,"0,98",0,"0,71",0,"0,42",0,"0,87",0,"0,54",0,"0,34",0,"0,44",0
Binko,ML020203,Dioila,ML0202,Koulikoro,ML02,586,0,"0,10",0,"0,79",0,"0,79",0,"0,89",0,"0,91",0,"0,62",0,"0,08",0,"0,40",0
Dégnékoro,ML020204,Dioila,ML0202,Koulikoro,ML02,329,0,"0,08",0,1,0,"0,68",0,"0,66",0,"0,86",0,"0,60",0,"0,05",0,"0,44",0
Dièbè,ML020205,Dioila,ML0202,Koulikoro,ML02,247,0,"0,10",0,"0,01",0,"0,77",0,"0,77",0,"0,91",0,"0,64",0,"0,09",0,"0,53",0
Diedougou,ML020206,Dioila,ML0202,Koulikoro,ML02,639,0,"0,09",0,"0,91",0,"0,73",0,"0,83",0,"0,90",0,"0,78",0,"0,14",0,"0,38",0
Diouman,ML020207,Dioila,ML0202,Koulikoro,ML02,1063,0,"0,06",0,"0,31",0,"0,85",0,"0,73",0,"0,95",0,"0,68",0,"0,03",0,"0,49",0
Dolendougou,ML020208,Dioila,ML0202,Koulikoro,ML02,357,0,"0,06",0,1,0,"0,71",0,"0,73",0,"0,91",0,"0,47",0,"0,10",0,"0,43",0
Guégnéka,ML020209,Dioila,ML0202,Koulikoro,ML02,470,0,"0,09",0,1,0,"0,75",0,"0,94",0,"0,93",0,"0,73",0,"0,54",0,"0,29",0
Jékafo,ML020210,Dioila,ML0202,Koulikoro,ML02,178,0,"0,05",0,1,0,"0,75",0,"0,30",0,"0,82",0,"0,38",0,"0,21",0,"0,50",0
Kaladougou,ML020211,Dioila,ML0202,Koulikoro,ML02,837,0,"0,12",0,"0,93",0,"0,72",0,"0,94",0,"0,87",0,"0,73",0,"0,30",0,"0,34",0
Kémékafo,ML020212,Dioila,ML0202,Koulikoro,ML02,1110,0,"0,05",0,"0,43",0,"0,70",0,"0,49",0,"0,87",0,"0,65",0,"0,02",0,"0,54",0
Kerela,ML020213,Dioila,ML0202,Koulikoro,ML02,270,0,"0,06",0,1,0,"0,73",0,"0,77",0,"0,91",0,"0,64",0,"0,15",0,"0,39",0
Kilidougou,ML020214,Dioila,ML0202,Koulikoro,ML02,338,0,"0,08",0,"0,58",0,"0,67",0,"0,73",0,"0,85",0,"0,60",0,"0,06",0,"0,49",0
Massigui,ML020215,Dioila,ML0202,Koulikoro,ML02,1161,0,"0,11",0,"0,96",0,"0,72",0,"0,73",0,"0,86",0,"0,44",0,"0,05",0,"0,45",0
Nangola,ML020216,Dioila,ML0202,Koulikoro,ML02,451,0,"0,07",0,1,0,"0,68",0,"0,68",0,"0,89",0,"0,51",0,"0,06",0,"0,44",0
N'dlondougou,ML020217,Dioila,ML0202,Koulikoro,ML02,663,0,"0,07",0,"0,95",0,"0,80",0,"0,71",0,"0,87",0,"0,67",0,"0,05",0,"0,41",0
N'garadougou,ML020218,Dioila,ML0202,Koulikoro,ML02,530,0,"0,12",0,"0,42",0,"0,74",0,"0,77",0,"0,86",0,"0,65",0,"0,05",0,"0,48",0
N'golobougou,ML020219,Dioila,ML0202,Koulikoro,ML02,471,0,"0,06",0,1,0,"0,66",0,"0,59",0,"0,88",0,"0,51",0,"0,12",0,"0,45",0
Niantjila,ML020220,Dioila,ML0202,Koulikoro,ML02,383,0,"0,08",0,"0,40",0,"0,77",0,"0,84",0,"0,81",0,"0,62",0,"0,06",0,"0,49",0
Ténindougou,ML020221,Dioila,ML0202,Koulikoro,ML02,573,0,"0,08",0,"0,63",0,"0,83",0,"0,62",0,"0,94",0,"0,47",0,"0,04",0,"0,48",0
Wacoro,ML020222,Dioila,ML0202,Koulikoro,ML02,200,0,"0,13",0,1,0,"0,69",0,"0,98",0,"0,84",0,"0,59",0,"0,09",0,"0,38",0
Zan Coulibaly,ML020223,Dioila,ML0202,Koulikoro,ML02,388,0,"0,09",0,"0,93",0,"0,81",0,"0,77",0,"0,89",0,"0,47",0,"0,17",0,"0,41",0
Balan Bakama,ML020301,Kangaba,ML0203,Koulikoro,ML02,559,0,"0,07",0,"0,49",0,"0,94",0,"0,82",0,"0,61",0,"0,81",0,"0,10",0,"0,45",0
Benkadi,ML020302,Kangaba,ML0203,Koulikoro,ML02,640,0,"0,09",0,1,0,"0,97",0,"0,76",0,"0,83",0,"0,76",0,"0,10",0,"0,36",0
Kaniogo,ML020303,Kangaba,ML0203,Koulikoro,ML02,623,0,"0,07",0,"0,88",0,"0,96",0,"0,73",0,"0,85",0,"0,73",0,"0,09",0,"0,38",0
Karan,ML020304,Kangaba,ML0203,Koulikoro,ML02,202,0,"0,10",0,1,0,"0,93",0,"0,77",0,"0,88",0,"0,78",0,"0,09",0,"0,35",0
Maramandougou,ML020305,Kangaba,ML0203,Koulikoro,ML02,597,0,"0,06",0,"0,83",0,"0,81",0,"0,64",0,"0,89",0,"0,74",0,"0,14",0,"0,41",0
Minidian,ML020306,Kangaba,ML0203,Koulikoro,ML02,444,0,"0,10",0,"0,94",0,"0,92",0,"0,90",0,"0,88",0,"0,75",0,"0,24",0,"0,33",0
Narena,ML020307,Kangaba,ML0203,Koulikoro,ML02,563,0,"0,09",0,1,0,"0,94",0,"0,80",0,"0,72",0,"0,75",0,"0,09",0,"0,37",0
Nouga,ML020308,Kangaba,ML0203,Koulikoro,ML02,808,0,"0,09",0,"0,81",0,"0,98",0,"0,82",0,"0,79",0,"0,73",0,"0,08",0,"0,39",0
Séléfougou,ML020309,Kangaba,ML0203,Koulikoro,ML02,361,0,"0,09",0,1,0,"0,77",0,"0,74",0,"0,84",0,"0,74",0,"0,13",0,"0,38",0
Baguinéda Camp,ML020401,Kati,ML0204,Koulikoro,ML02,1009,0,"0,09",0,1,0,"0,94",0,"0,95",0,"0,93",0,"0,89",0,"0,23",0,"0,28",0
Bancoumana,ML020402,Kati,ML0204,Koulikoro,ML02,569,0,"0,09",0,1,0,"0,87",0,"0,91",0,"0,92",0,"0,77",0,"0,11",0,"0,33",0
Bossofala,ML020403,Kati,ML0204,Koulikoro,ML02,1575,0,"0,06",0,"0,58",0,"0,85",0,"0,57",0,"0,66",0,"0,74",0,"0,07",0,"0,50",0
Bougoula,ML020404,Kati,ML0204,Koulikoro,ML02,324,0,"0,09",0,1,0,"0,94",0,"0,74",0,"0,94",0,"0,69",0,"0,07",0,"0,36",0
Daban,ML020405,Kati,ML0204,Koulikoro,ML02,736,0,"0,06",0,"0,19",0,"0,78",0,"0,56",0,"0,90",0,"0,24",0,"0,04",0,"0,60",0
Diago,ML020406,Kati,ML0204,Koulikoro,ML02,129,0,"0,08",0,1,0,"0,91",0,"0,98",0,"0,82",0,"0,75",0,"0,18",0,"0,33",0
Dialakoroba,ML020407,Kati,ML0204,Koulikoro,ML02,628,0,"0,10",0,1,0,"0,95",0,"0,85",0,"0,95",0,"0,77",0,"0,15",0,"0,32",0
Dialakorodji,ML020408,Kati,ML0204,Koulikoro,ML02,44,0,"0,16",0,1,0,"0,95",0,1,0,"0,43",0,"0,87",0,"0,75",0,"0,26",0
Diébougou,ML020409,Kati,ML0204,Koulikoro,ML02,377,0,"0,08",0,"0,45",0,"0,78",0,"0,75",0,"0,85",0,"0,70",0,"0,10",0,"0,47",0
Dio Gare,ML020410,Kati,ML0204,Koulikoro,ML02,180,0,"0,13",0,"0,46",0,"0,89",0,"0,93",0,"0,71",0,"0,56",0,"0,41",0,"0,42",0
Dogodouman,ML020411,Kati,ML0204,Koulikoro,ML02,59,0,"0,04",0,1,0,"0,95",0,"0,88",0,"0,32",0,"0,79",0,"0,35",0,"0,38",0
Dombila,ML020412,Kati,ML0204,Koulikoro,ML02,391,0,"0,08",0,"0,03",0,"0,88",0,"0,63",0,"0,71",0,"0,77",0,"0,11",0,"0,54",0
Doubabougou,ML020413,Kati,ML0204,Koulikoro,ML02,152,0,"0,05",0,1,0,"0,91",0,"0,69",0,"0,66",0,"0,78",0,"0,16",0,"0,39",0
Faraba,ML020414,Kati,ML0204,Koulikoro,ML02,502,0,"0,07",0,"0,81",0,"0,85",0,"0,72",0,"0,95",0,"0,75",0,"0,03",0,"0,40",0
Kalabancoro,ML020415,Kati,ML0204,Koulikoro,ML02,222,0,"0,11",0,1,0,"0,96",0,"0,98",0,"0,92",0,"0,82",0,"0,26",0,"0,28",0
Kalifabougou,ML020416,Kati,ML0204,Koulikoro,ML02,239,0,"0,09",0,"0,36",0,"0,87",0,"0,88",0,"0,78",0,"0,71",0,"0,17",0,"0,45",0
Kambila,ML020417,Kati,ML0204,Koulikoro,ML02,430,0,"0,08",0,"0,87",0,"0,92",0,"0,89",0,"0,73",0,"0,70",0,"0,16",0,"0,38",0
Kati,ML020418,Kati,ML0204,Koulikoro,ML02,59,0,"0,34",0,"0,95",0,"0,93",0,1,0,"0,78",0,"0,79",0,"0,75",0,"0,21",0
Kourouba,ML020419,Kati,ML0204,Koulikoro,ML02,225,0,"0,10",0,1,0,"0,83",0,"0,90",0,"0,92",0,"0,76",0,"0,13",0,"0,34",0
Mandé,ML020420,Kati,ML0204,Koulikoro,ML02,695,0,"0,12",0,1,0,"0,95",0,"0,98",0,"0,77",0,"0,72",0,"0,35",0,"0,30",0
Moribabougou,ML020421,Kati,ML0204,Koulikoro,ML02,79,0,"0,06",0,1,0,"0,95",0,"0,96",0,"0,33",0,"0,78",0,"0,65",0,"0,32",0
Mountougoula,ML020422,Kati,ML0204,Koulikoro,ML02,369,0,"0,11",0,1,0,"0,95",0,"0,86",0,"0,90",0,"0,78",0,"0,14",0,"0,32",0
N'gabacoro Droit,ML020423,Kati,ML0204,Koulikoro,ML02,104,0,"0,15",0,1,0,"0,95",0,1,0,"0,85",0,"0,82",0,"0,38",0,"0,26",0
N'gouraba,ML020424,Kati,ML0204,Koulikoro,ML02,579,0,"0,09",0,"0,54",0,"0,88",0,"0,80",0,"0,94",0,"0,74",0,"0,05",0,"0,42",0
Niagadina,ML020425,Kati,ML0204,Koulikoro,ML02,87,0,"0,14",0,1,0,"0,86",0,"0,98",0,"0,95",0,"0,76",0,"0,26",0,"0,29",0
Nioumakana,ML020426,Kati,ML0204,Koulikoro,ML02,311,0,"0,11",0,0,0,"0,87",0,"0,64",0,"0,48",0,"0,74",0,"0,12",0,"0,58",0
N'tjiba,ML020427,Kati,ML0204,Koulikoro,ML02,802,0,"0,08",0,"0,59",0,"0,79",0,"0,70",0,"0,85",0,"0,62",0,"0,05",0,"0,48",0
Ouélessébougou,ML020428,Kati,ML0204,Koulikoro,ML02,1118,0,"0,12",0,"0,92",0,"0,90",0,"0,91",0,"0,96",0,"0,69",0,"0,19",0,"0,33",0
Safo,ML020429,Kati,ML0204,Koulikoro,ML02,307,0,"0,10",0,"0,67",0,"0,94",0,"0,87",0,"0,78",0,"0,80",0,"0,16",0,"0,38",0
Sanankoro Djitoumou,ML020430,Kati,ML0204,Koulikoro,ML02,630,0,"0,12",0,"0,80",0,"0,89",0,"0,86",0,"0,94",0,"0,73",0,"0,05",0,"0,37",0
Sanankoroba,ML020431,Kati,ML0204,Koulikoro,ML02,617,0,"0,12",0,1,0,"0,97",0,"0,87",0,"0,94",0,"0,90",0,"0,13",0,"0,30",0
Sangarébougou,ML020432,Kati,ML0204,Koulikoro,ML02,18,0,"0,06",0,1,0,"0,96",0,1,0,"0,42",0,"0,84",0,"0,49",0,"0,32",0
Siby,ML020433,Kati,ML0204,Koulikoro,ML02,1090,0,"0,08",0,"0,72",0,"0,88",0,"0,83",0,"0,62",0,"0,64",0,"0,15",0,"0,44",0
Sobra,ML020434,Kati,ML0204,Koulikoro,ML02,938,0,"0,05",0,"0,29",0,"0,83",0,"0,59",0,"0,48",0,"0,74",0,"0,02",0,"0,57",0
Tiakadougou Dialakoro,ML020435,Kati,ML0204,Koulikoro,ML02,327,0,"0,09",0,"0,88",0,"0,82",0,"0,82",0,"0,92",0,"0,73",0,"0,13",0,"0,37",0
Tiélé,ML020436,Kati,ML0204,Koulikoro,ML02,586,0,"0,14",0,"0,85",0,"0,88",0,"0,90",0,"0,89",0,"0,66",0,"0,07",0,"0,37",0
Yélékedougou,ML020437,Kati,ML0204,Koulikoro,ML02,288,0,"0,12",0,"0,27",0,"0,88",0,"0,84",0,"0,82",0,"0,75",0,"0,24",0,"0,44",0
Didiéni,ML020501,Kolokani,ML0205,Koulikoro,ML02,1986,0,"0,07",0,"0,47",0,"0,69",0,"0,73",0,"0,84",0,"0,64",0,"0,07",0,"0,50",0
Guihoyo,ML020502,Kolokani,ML0205,Koulikoro,ML02,1065,0,"0,09",0,"0,65",0,"0,72",0,"0,78",0,"0,84",0,"0,67",0,"0,06",0,"0,46",0
Kolokani,ML020503,Kolokani,ML0205,Koulikoro,ML02,1192,0,"0,10",0,"0,82",0,"0,75",0,"0,89",0,"0,88",0,"0,73",0,"0,15",0,"0,38",0
Massantola,ML020504,Kolokani,ML0205,Koulikoro,ML02,1120,0,"0,08",0,"0,38",0,"0,75",0,"0,71",0,"0,88",0,"0,33",0,0,0,"0,55",0
Nonkon,ML020505,Kolokani,ML0205,Koulikoro,ML02,513,0,"0,08",0,"0,20",0,"0,81",0,"0,67",0,"0,83",0,"0,65",0,"0,09",0,"0,52",0
Nossombougou,ML020506,Kolokani,ML0205,Koulikoro,ML02,411,0,"0,12",0,"0,57",0,"0,85",0,"0,87",0,"0,84",0,"0,38",0,"0,02",0,"0,48",0
Ouolodo,ML020507,Kolokani,ML0205,Koulikoro,ML02,223,0,"0,16",0,"0,26",0,"0,82",0,"0,96",0,"0,92",0,"0,65",0,"0,36",0,"0,41",0
Sagabala,ML020508,Kolokani,ML0205,Koulikoro,ML02,3823,0,"0,06",0,"0,26",0,"0,64",0,"0,62",0,"0,88",0,"0,58",0,"0,02",0,"0,56",0
Sébécoro I,ML020509,Kolokani,ML0205,Koulikoro,ML02,910,0,"0,05",0,1,0,"0,68",0,"0,44",0,"0,86",0,"0,66",0,"0,06",0,"0,46",0
Tioribougou,ML020510,Kolokani,ML0205,Koulikoro,ML02,445,0,"0,09",0,1,0,"0,79",0,"0,78",0,"0,88",0,"0,68",0,"0,12",0,"0,38",0
Dinandougou,ML020601,Koulikoro,ML0206,Koulikoro,ML02,632,0,"0,08",0,"0,65",0,"0,79",0,"0,75",0,"0,88",0,"0,62",0,"0,09",0,"0,45",0
Doumba,ML020602,Koulikoro,ML0206,Koulikoro,ML02,131,0,"0,10",0,"0,82",0,"0,83",0,"0,76",0,"0,90",0,"0,71",0,"0,28",0,"0,37",0
Koula,ML020603,Koulikoro,ML0206,Koulikoro,ML02,787,0,"0,06",0,"0,18",0,"0,83",0,"0,62",0,"0,85",0,"0,72",0,"0,08",0,"0,52",0
Koulikoro,ML020604,Koulikoro,ML0206,Koulikoro,ML02,17,0,"0,55",0,1,0,"0,89",0,1,0,"0,88",0,"0,85",0,"0,75",0,"0,16",0
Méguétan,ML020605,Koulikoro,ML0206,Koulikoro,ML02,1192,0,"0,10",0,"0,94",0,"0,87",0,"0,88",0,"0,77",0,"0,88",0,"0,15",0,"0,34",0
Nyamina,ML020606,Koulikoro,ML0206,Koulikoro,ML02,1283,0,"0,10",0,"0,60",0,"0,73",0,"0,88",0,"0,96",0,"0,63",0,"0,07",0,"0,43",0
Sirakorola,ML020607,Koulikoro,ML0206,Koulikoro,ML02,993,0,"0,07",0,1,0,"0,80",0,"0,77",0,"0,84",0,"0,64",0,"0,03",0,"0,41",0
Tienfala,ML020608,Koulikoro,ML0206,Koulikoro,ML02,346,0,"0,03",0,1,0,"0,93",0,"0,48",0,"0,65",0,"0,79",0,"0,12",0,"0,43",0
Tougouni,ML020609,Koulikoro,ML0206,Koulikoro,ML02,574,0,"0,07",0,"0,93",0,"0,78",0,"0,68",0,"0,92",0,"0,60",0,"0,09",0,"0,42",0
Allahina,ML020701,Nara,ML0207,Koulikoro,ML02,444,0,"0,07",0,0,0,"0,71",0,"0,74",0,"0,89",0,"0,38",0,"0,10",0,"0,59",0
Dabo,ML020702,Nara,ML0207,Koulikoro,ML02,1399,0,"0,04",0,"0,06",0,"0,66",0,"0,54",0,"0,91",0,"0,45",0,"0,04",0,"0,61",0
Dilly,ML020703,Nara,ML0207,Koulikoro,ML02,5617,0,"0,07",0,"0,16",0,"0,83",0,"0,68",0,"0,92",0,"0,16",0,"0,04",0,"0,59",0
Dogofry,ML020704,Nara,ML0207,Koulikoro,ML02,3264,0,"0,06",0,"0,14",0,"0,69",0,"0,70",0,"0,88",0,"0,38",0,"0,02",0,"0,59",0
Fallou,ML020705,Nara,ML0207,Koulikoro,ML02,2951,0,"0,07",0,"0,10",0,"0,71",0,"0,68",0,"0,89",0,"0,24",0,"0,05",0,"0,61",0
Guéneibe,ML020706,Nara,ML0207,Koulikoro,ML02,1986,0,"0,08",0,0,0,"0,92",0,"0,77",0,"0,89",0,"0,45",0,"0,08",0,"0,54",0
Guiré,ML020707,Nara,ML0207,Koulikoro,ML02,6892,0,"0,08",0,"0,23",0,"0,75",0,"0,76",0,"0,92",0,"0,51",0,"0,02",0,"0,53",0
Koronga,ML020708,Nara,ML0207,Koulikoro,ML02,1305,0,"0,08",0,0,0,"0,86",0,"0,75",0,"0,90",0,"0,07",0,"0,05",0,"0,61",0
Nara,ML020709,Nara,ML0207,Koulikoro,ML02,1298,0,"0,09",0,"0,53",0,"0,92",0,"0,91",0,"0,87",0,"0,36",0,"0,37",0,"0,42",0
Niamana,ML020710,Nara,ML0207,Koulikoro,ML02,4824,0,"0,09",0,"0,29",0,"0,77",0,"0,82",0,"0,92",0,"0,11",0,"0,01",0,"0,57",0
Ouagadou,ML020711,Nara,ML0207,Koulikoro,ML02,1128,0,"0,06",0,"0,72",0,"0,87",0,"0,69",0,"0,91",0,"0,47",0,"0,10",0,"0,45",0
Bladié-Tièmala,ML030101,Bougouni,ML0301,Sikasso,ML03,163,0,"0,10",0,"0,76",0,"0,89",0,"0,96",0,"0,91",0,"0,59",0,"0,16",0,"0,37",0
Bougouni,ML030102,Bougouni,ML0301,Sikasso,ML03,439,0,"0,10",0,1,0,"0,79",0,"0,98",0,"0,91",0,"0,69",0,"0,65",0,"0,27",0
Danou,ML030103,Bougouni,ML0301,Sikasso,ML03,662,0,"0,06",0,1,0,"0,75",0,"0,68",0,"0,93",0,"0,74",0,"0,09",0,"0,39",0
Débélin,ML030104,Bougouni,ML0301,Sikasso,ML03,422,0,"0,04",0,1,0,"0,71",0,"0,70",0,"0,87",0,"0,63",0,"0,14",0,"0,42",0
Défina,ML030105,Bougouni,ML0301,Sikasso,ML03,142,0,"0,19",0,"0,77",0,"0,85",0,"0,96",0,"0,92",0,"0,61",0,"0,26",0,"0,35",0
Dogo,ML030106,Bougouni,ML0301,Sikasso,ML03,1761,0,"0,09",0,"0,55",0,"0,79",0,"0,81",0,"0,87",0,"0,49",0,"0,02",0,"0,48",0
Domba,ML030107,Bougouni,ML0301,Sikasso,ML03,781,0,"0,06",0,"0,61",0,"0,70",0,"0,73",0,"0,82",0,"0,64",0,"0,05",0,"0,48",0
Farédiélé,ML030108,Bougouni,ML0301,Sikasso,ML03,145,0,"0,07",0,1,0,"0,76",0,"0,79",0,"0,94",0,"0,69",0,"0,22",0,"0,36",0
Faragouaran,ML030109,Bougouni,ML0301,Sikasso,ML03,517,0,"0,10",0,"0,74",0,"0,70",0,"0,82",0,"0,94",0,"0,72",0,"0,12",0,"0,41",0
Garalo,ML030110,Bougouni,ML0301,Sikasso,ML03,1908,0,"0,09",0,"0,88",0,"0,88",0,"0,80",0,"0,90",0,"0,47",0,"0,03",0,"0,42",0
Kéléya,ML030111,Bougouni,ML0301,Sikasso,ML03,635,0,"0,12",0,"0,73",0,"0,86",0,"0,89",0,"0,96",0,"0,56",0,"0,09",0,"0,40",0
Kolélé,ML030112,Bougouni,ML0301,Sikasso,ML03,344,0,"0,05",0,1,0,"0,78",0,"0,66",0,"0,92",0,"0,66",0,"0,12",0,"0,40",0
Kola,ML030113,Bougouni,ML0301,Sikasso,ML03,183,0,"0,10",0,1,0,"0,80",0,"0,88",0,"0,90",0,"0,63",0,"0,34",0,"0,33",0
Koumantou,ML030114,Bougouni,ML0301,Sikasso,ML03,1306,0,"0,09",0,1,0,"0,77",0,"0,82",0,"0,91",0,"0,70",0,"0,05",0,"0,38",0
Kouroulamini,ML030115,Bougouni,ML0301,Sikasso,ML03,312,0,"0,13",0,"0,69",0,"0,76",0,"0,90",0,"0,95",0,"0,69",0,"0,29",0,"0,37",0
Méridiéla,ML030116,Bougouni,ML0301,Sikasso,ML03,1011,0,"0,10",0,"0,44",0,"0,81",0,"0,80",0,"0,89",0,"0,69",0,"0,03",0,"0,47",0
Ouroun,ML030117,Bougouni,ML0301,Sikasso,ML03,250,0,"0,07",0,"0,65",0,"0,82",0,"0,78",0,"0,95",0,"0,68",0,"0,16",0,"0,41",0
Sanso,ML030118,Bougouni,ML0301,Sikasso,ML03,389,0,"0,10",0,1,0,"0,71",0,"0,85",0,"0,89",0,"0,64",0,"0,17",0,"0,38",0
Sibirila,ML030119,Bougouni,ML0301,Sikasso,ML03,2429,0,"0,09",0,"0,87",0,1,0,"0,81",0,"0,86",0,"0,87",0,"0,02",0,"0,36",0
Sido,ML030120,Bougouni,ML0301,Sikasso,ML03,1058,0,"0,08",0,"0,90",0,"0,81",0,"0,80",0,"0,96",0,"0,67",0,"0,05",0,"0,39",0
Syen Toula,ML030121,Bougouni,ML0301,Sikasso,ML03,642,0,"0,15",0,"0,48",0,"0,80",0,"0,97",0,"0,92",0,"0,71",0,"0,09",0,"0,41",0
Tiémala Banimonitié,ML030122,Bougouni,ML0301,Sikasso,ML03,806,0,"0,09",0,"0,40",0,"0,84",0,"0,65",0,"0,91",0,"0,73",0,"0,06",0,"0,48",0
Wola,ML030123,Bougouni,ML0301,Sikasso,ML03,398,0,"0,06",0,1,0,"0,74",0,"0,65",0,"0,88",0,"0,62",0,"0,06",0,"0,43",0
Yinindougou,ML030124,Bougouni,ML0301,Sikasso,ML03,989,0,"0,05",0,"0,94",0,"0,93",0,"0,62",0,"0,81",0,"0,73",0,"0,02",0,"0,41",0
Yiridougou,ML030125,Bougouni,ML0301,Sikasso,ML03,583,0,"0,03",0,"0,81",0,"0,81",0,"0,54",0,"0,90",0,"0,64",0,"0,07",0,"0,46",0
Zantiébougou,ML030126,Bougouni,ML0301,Sikasso,ML03,1597,0,"0,08",0,1,0,"0,77",0,"0,77",0,"0,90",0,"0,33",0,"0,05",0,"0,44",0
Diou,ML030201,Kadiolo,ML0302,Sikasso,ML03,137,0,"0,14",0,1,0,"0,93",0,"0,93",0,"0,92",0,"0,81",0,"0,25",0,"0,29",0
Dioumaténé,ML030202,Kadiolo,ML0302,Sikasso,ML03,225,0,"0,12",0,1,0,"0,95",0,"0,82",0,"0,90",0,"0,80",0,"0,15",0,"0,32",0
Fourou,ML030203,Kadiolo,ML0302,Sikasso,ML03,1334,0,"0,07",0,"0,89",0,"0,88",0,"0,60",0,"0,91",0,"0,91",0,"0,23",0,"0,36",0
Kadiolo,ML030204,Kadiolo,ML0302,Sikasso,ML03,783,0,"0,06",0,1,0,"0,97",0,"0,69",0,"0,88",0,"0,84",0,"0,26",0,"0,33",0
Kai,ML030205,Kadiolo,ML0302,Sikasso,ML03,183,0,"0,12",0,"0,32",0,"0,92",0,"0,80",0,"0,68",0,"0,83",0,"0,12",0,"0,46",0
Loulouni,ML030206,Kadiolo,ML0302,Sikasso,ML03,1052,0,"0,10",0,"0,80",0,"0,92",0,"0,82",0,"0,79",0,"0,90",0,"0,09",0,"0,37",0
Misséni,ML030207,Kadiolo,ML0302,Sikasso,ML03,915,0,"0,05",0,1,0,"0,89",0,"0,52",0,"0,90",0,"0,74",0,"0,05",0,"0,41",0
Nimbougou,ML030208,Kadiolo,ML0302,Sikasso,ML03,238,0,"0,05",0,"0,82",0,"0,90",0,"0,74",0,"0,78",0,"0,84",0,"0,19",0,"0,38",0
Zégoua,ML030209,Kadiolo,ML0302,Sikasso,ML03,490,0,"0,08",0,1,0,1,0,"0,92",0,"0,85",0,"0,75",0,"0,53",0,"0,27",0
Bougoula,ML030301,Kolondieba,ML0303,Sikasso,ML03,238,0,"0,15",0,"0,49",0,"0,86",0,"0,96",0,"0,93",0,"0,65",0,"0,19",0,"0,39",0
Fakola,ML030302,Kolondieba,ML0303,Sikasso,ML03,1175,0,"0,08",0,"0,39",0,"0,86",0,"0,71",0,"0,89",0,"0,68",0,"0,03",0,"0,48",0
Farako,ML030303,Kolondieba,ML0303,Sikasso,ML03,814,0,"0,05",0,"0,23",0,"0,88",0,"0,51",0,"0,91",0,"0,66",0,"0,04",0,"0,53",0
Kadiana,ML030304,Kolondieba,ML0303,Sikasso,ML03,834,0,"0,11",0,"0,78",0,"0,96",0,"0,92",0,"0,93",0,"0,69",0,"0,13",0,"0,36",0
Kébila,ML030305,Kolondieba,ML0303,Sikasso,ML03,860,0,"0,03",0,1,0,"0,73",0,"0,44",0,"0,91",0,"0,42",0,"0,06",0,"0,49",0
Kolondiéba,ML030306,Kolondieba,ML0303,Sikasso,ML03,1881,0,"0,07",0,"0,88",0,"0,86",0,"0,67",0,"0,90",0,"0,38",0,"0,10",0,"0,45",0
Kolosso,ML030307,Kolondieba,ML0303,Sikasso,ML03,226,0,"0,10",0,"0,54",0,"0,86",0,"0,58",0,"0,90",0,"0,55",0,"0,19",0,"0,47",0
Ména,ML030308,Kolondieba,ML0303,Sikasso,ML03,222,0,"0,07",0,1,0,"0,82",0,"0,66",0,"0,90",0,"0,59",0,"0,13",0,"0,41",0
Nangalasso,ML030309,Kolondieba,ML0303,Sikasso,ML03,460,0,"0,10",0,"0,33",0,"0,91",0,"0,75",0,"0,91",0,"0,69",0,"0,04",0,"0,47",0
N'golodiana,ML030310,Kolondieba,ML0303,Sikasso,ML03,322,0,"0,09",0,1,0,"0,84",0,"0,79",0,"0,92",0,"0,61",0,"0,07",0,"0,38",0
Tiongui,ML030311,Kolondieba,ML0303,Sikasso,ML03,505,0,"0,09",0,"0,54",0,"0,94",0,"0,81",0,"0,95",0,"0,73",0,"0,10",0,"0,41",0
Tousseguela,ML030312,Kolondieba,ML0303,Sikasso,ML03,469,0,"0,08",0,"0,95",0,"0,88",0,"0,83",0,"0,89",0,"0,65",0,"0,10",0,"0,38",0
Diédougou,ML030401,Koutiala,ML0304,Sikasso,ML03,148,0,"0,06",0,1,0,"0,71",0,"0,79",0,"0,96",0,"0,65",0,"0,22",0,"0,37",0
Diouradougou Kafo,ML030402,Koutiala,ML0304,Sikasso,ML03,402,0,"0,07",0,"0,31",0,"0,85",0,"0,71",0,"0,94",0,"0,69",0,"0,10",0,"0,48",0
Fagui,ML030403,Koutiala,ML0304,Sikasso,ML03,504,0,"0,07",0,"0,26",0,"0,73",0,"0,58",0,"0,96",0,"0,68",0,"0,08",0,"0,52",0
Fakolo,ML030404,Koutiala,ML0304,Sikasso,ML03,201,0,"0,11",0,"0,55",0,"0,76",0,"0,81",0,"0,94",0,"0,61",0,"0,15",0,"0,44",0
Gouadié Sougouna,ML030405,Koutiala,ML0304,Sikasso,ML03,267,0,"0,07",0,"0,61",0,"0,82",0,"0,61",0,"0,97",0,"0,69",0,"0,14",0,"0,44",0
Gouadji Kao,ML030406,Koutiala,ML0304,Sikasso,ML03,150,0,"0,02",0,1,0,"0,80",0,"0,55",0,"0,96",0,"0,64",0,"0,24",0,"0,40",0
Kafo Faboli,ML030407,Koutiala,ML0304,Sikasso,ML03,217,0,"0,11",0,1,0,"0,71",0,"0,93",0,"0,97",0,"0,60",0,"0,13",0,"0,36",0
Kapala,ML030408,Koutiala,ML0304,Sikasso,ML03,199,0,"0,14",0,"0,18",0,"0,81",0,"0,93",0,"0,97",0,"0,72",0,"0,16",0,"0,44",0
Karagouana Mallé,ML030409,Koutiala,ML0304,Sikasso,ML03,182,0,"0,04",0,1,0,"0,73",0,"0,58",0,"0,97",0,"0,63",0,"0,24",0,"0,40",0
Kolonigué,ML030410,Koutiala,ML0304,Sikasso,ML03,456,0,"0,14",0,"0,70",0,"0,85",0,"0,88",0,"0,96",0,"0,69",0,"0,07",0,"0,39",0
Konina,ML030411,Koutiala,ML0304,Sikasso,ML03,733,0,"0,08",0,"0,71",0,"0,68",0,"0,73",0,"0,97",0,"0,73",0,"0,07",0,"0,43",0
Koningué,ML030412,Koutiala,ML0304,Sikasso,ML03,255,0,"0,22",0,"0,52",0,"0,88",0,1,0,"0,91",0,"0,67",0,"0,16",0,"0,38",0
Konséguéla,ML030413,Koutiala,ML0304,Sikasso,ML03,655,0,"0,08",0,"0,80",0,"0,74",0,"0,66",0,"0,96",0,"0,65",0,"0,06",0,"0,44",0
Koromo,ML030414,Koutiala,ML0304,Sikasso,ML03,263,0,"0,11",0,0,0,"0,81",0,"0,82",0,"0,97",0,"0,66",0,"0,08",0,"0,51",0
Kouniana,ML030415,Koutiala,ML0304,Sikasso,ML03,79,0,"0,20",0,"0,63",0,"0,84",0,1,0,"0,96",0,"0,62",0,"0,30",0,"0,35",0
Koutiala,ML030416,Koutiala,ML0304,Sikasso,ML03,268,0,"0,18",0,1,0,"0,82",0,1,0,"0,94",0,"0,93",0,"0,70",0,"0,20",0
Logouana,ML030417,Koutiala,ML0304,Sikasso,ML03,118,0,"0,06",0,0,0,"0,85",0,"0,59",0,"0,96",0,"0,66",0,"0,20",0,"0,52",0
Miena,ML030418,Koutiala,ML0304,Sikasso,ML03,190,0,"0,08",0,"0,46",0,"0,70",0,"0,80",0,"0,97",0,"0,61",0,"0,23",0,"0,45",0
M'pessoba,ML030419,Koutiala,ML0304,Sikasso,ML03,490,0,"0,12",0,"0,76",0,"0,75",0,"0,91",0,"0,94",0,"0,59",0,"0,19",0,"0,39",0
Nafanga,ML030420,Koutiala,ML0304,Sikasso,ML03,274,0,"0,12",0,"0,68",0,"0,87",0,"0,91",0,"0,96",0,"0,67",0,"0,19",0,"0,37",0
Nampé,ML030421,Koutiala,ML0304,Sikasso,ML03,142,0,"0,11",0,"0,81",0,"0,78",0,"0,94",0,"0,95",0,"0,65",0,"0,19",0,"0,37",0
N'golonianasso,ML030422,Koutiala,ML0304,Sikasso,ML03,402,0,"0,05",0,1,0,"0,78",0,"0,52",0,"0,96",0,"0,60",0,"0,09",0,"0,43",0
N'goutjina,ML030423,Koutiala,ML0304,Sikasso,ML03,236,0,"0,12",0,"0,95",0,"0,83",0,"0,91",0,"0,95",0,"0,80",0,"0,39",0,"0,29",0
Niantaga,ML030424,Koutiala,ML0304,Sikasso,ML03,281,0,"0,08",0,0,0,"0,77",0,"0,81",0,"0,96",0,"0,61",0,"0,11",0,"0,52",0
N'tossoni,ML030425,Koutiala,ML0304,Sikasso,ML03,155,0,"0,07",0,"0,25",0,"0,72",0,"0,63",0,"0,95",0,"0,64",0,"0,28",0,"0,49",0
Sincina,ML030426,Koutiala,ML0304,Sikasso,ML03,210,0,"0,10",0,1,0,"0,83",0,"0,98",0,"0,94",0,"0,80",0,"0,43",0,"0,27",0
Sinkolo,ML030427,Koutiala,ML0304,Sikasso,ML03,296,0,"0,08",0,"0,19",0,"0,82",0,"0,73",0,"0,96",0,"0,78",0,"0,12",0,"0,48",0
Songo Doubacoro,ML030428,Koutiala,ML0304,Sikasso,ML03,232,0,"0,11",0,"0,55",0,"0,77",0,"0,85",0,"0,96",0,"0,65",0,"0,09",0,"0,43",0
Songoua,ML030429,Koutiala,ML0304,Sikasso,ML03,107,0,"0,05",0,1,0,"0,80",0,"0,81",0,"0,94",0,"0,73",0,"0,26",0,"0,34",0
Sorobasso,ML030430,Koutiala,ML0304,Sikasso,ML03,133,0,"0,10",0,1,0,"0,78",0,"0,94",0,"0,97",0,"0,66",0,"0,16",0,"0,34",0
Tao,ML030431,Koutiala,ML0304,Sikasso,ML03,67,0,"0,10",0,"0,73",0,"0,75",0,"0,92",0,"0,93",0,"0,53",0,"0,43",0,"0,37",0
Yognogo,ML030432,Koutiala,ML0304,Sikasso,ML03,66,0,"0,23",0,"0,47",0,"0,79",0,1,0,"0,95",0,"0,72",0,"0,40",0,"0,35",0
Zanfigué,ML030433,Koutiala,ML0304,Sikasso,ML03,226,0,"0,11",0,0,0,"0,86",0,"0,88",0,"0,97",0,"0,53",0,"0,11",0,"0,50",0
Zangasso,ML030434,Koutiala,ML0304,Sikasso,ML03,452,0,"0,10",0,1,0,"0,84",0,"0,84",0,"0,96",0,"0,72",0,"0,09",0,"0,35",0
Zanina,ML030435,Koutiala,ML0304,Sikasso,ML03,125,0,"0,11",0,"0,13",0,"0,73",0,"0,93",0,"0,93",0,"0,55",0,"0,29",0,"0,48",0
Zebala,ML030436,Koutiala,ML0304,Sikasso,ML03,312,0,"0,07",0,"0,08",0,"0,85",0,"0,77",0,"0,97",0,"0,63",0,"0,14",0,"0,50",0
Benkadi,ML030501,Sikasso,ML0305,Sikasso,ML03,175,0,"0,13",0,"0,82",0,"0,81",0,"0,72",0,"0,75",0,"0,66",0,"0,19",0,"0,42",0
Blendio,ML030502,Sikasso,ML0305,Sikasso,ML03,369,0,"0,11",0,1,0,"0,83",0,"0,84",0,"0,81",0,"0,68",0,"0,08",0,"0,38",0
Danderesso,ML030503,Sikasso,ML0305,Sikasso,ML03,1645,0,"0,09",0,"0,66",0,"0,93",0,"0,74",0,"0,91",0,"0,79",0,"0,03",0,"0,41",0
Dembela,ML030504,Sikasso,ML0305,Sikasso,ML03,426,0,"0,12",0,"0,91",0,"0,81",0,"0,93",0,"0,84",0,"0,64",0,"0,14",0,"0,37",0
Dialakoro,ML030505,Sikasso,ML0305,Sikasso,ML03,83,0,0,0,0,0,"0,82",0,"0,39",0,"0,82",0,"0,78",0,"0,23",0,"0,57",0
Diomaténé,ML030506,Sikasso,ML0305,Sikasso,ML03,96,0,"0,13",0,"0,68",0,"0,98",0,"0,97",0,"0,89",0,"0,85",0,"0,39",0,"0,30",0
Dogoni,ML030507,Sikasso,ML0305,Sikasso,ML03,361,0,"0,09",0,"0,53",0,"0,80",0,"0,83",0,"0,85",0,"0,70",0,"0,09",0,"0,44",0
Doumanaba,ML030508,Sikasso,ML0305,Sikasso,ML03,288,0,"0,10",0,"0,42",0,"0,91",0,"0,78",0,"0,89",0,"0,77",0,"0,22",0,"0,41",0
Fama,ML030509,Sikasso,ML0305,Sikasso,ML03,222,0,"0,12",0,"0,38",0,"0,95",0,"0,86",0,"0,93",0,"0,80",0,"0,08",0,"0,41",0
Farakala,ML030510,Sikasso,ML0305,Sikasso,ML03,280,0,"0,06",0,1,0,"0,94",0,"0,69",0,"0,87",0,"0,90",0,"0,16",0,"0,34",0
Finkolo,ML030511,Sikasso,ML0305,Sikasso,ML03,477,0,"0,09",0,1,0,"0,97",0,"0,74",0,"0,85",0,1,0,"0,06",0,"0,33",0
Finkolo Ganadougou,ML030512,Sikasso,ML0305,Sikasso,ML03,464,0,"0,06",0,"0,93",0,"0,84",0,"0,81",0,"0,88",0,"0,78",0,"0,15",0,"0,36",0
Gongasso,ML030513,Sikasso,ML0305,Sikasso,ML03,378,0,"0,11",0,"0,84",0,"0,93",0,"0,78",0,"0,83",0,"0,79",0,"0,09",0,"0,38",0
Kabarasso,ML030514,Sikasso,ML0305,Sikasso,ML03,255,0,"0,10",0,"0,77",0,"0,84",0,"0,85",0,"0,84",0,"0,71",0,"0,18",0,"0,39",0
Kaboila,ML030515,Sikasso,ML0305,Sikasso,ML03,654,0,"0,07",0,"0,74",0,"0,98",0,"0,65",0,"0,89",0,"0,85",0,"0,06",0,"0,39",0
Kafouziela,ML030516,Sikasso,ML0305,Sikasso,ML03,59,0,"0,11",0,"0,51",0,"0,97",0,1,0,"0,89",0,"0,84",0,"0,50",0,"0,31",0
Kapala,ML030517,Sikasso,ML0305,Sikasso,ML03,175,0,"0,21",0,0,0,"0,95",0,"0,99",0,"0,88",0,"0,87",0,"0,16",0,"0,42",0
Kapolondougou,ML030518,Sikasso,ML0305,Sikasso,ML03,526,0,"0,06",0,1,0,"0,92",0,"0,69",0,"0,85",0,"0,81",0,"0,16",0,"0,36",0
Kignan,ML030519,Sikasso,ML0305,Sikasso,ML03,646,0,"0,10",0,1,0,"0,87",0,"0,82",0,"0,88",0,"0,72",0,"0,16",0,"0,35",0
Kléla,ML030520,Sikasso,ML0305,Sikasso,ML03,786,0,"0,09",0,"0,84",0,"0,93",0,"0,74",0,"0,95",0,"0,78",0,"0,08",0,"0,37",0
Kofan,ML030521,Sikasso,ML0305,Sikasso,ML03,283,0,"0,11",0,"0,73",0,"0,88",0,"0,80",0,"0,84",0,"0,75",0,"0,10",0,"0,40",0
Kolokoba,ML030522,Sikasso,ML0305,Sikasso,ML03,249,0,"0,09",0,1,0,"0,91",0,"0,73",0,"0,78",0,"0,82",0,"0,14",0,"0,36",0
Koumankou,ML030523,Sikasso,ML0305,Sikasso,ML03,243,0,"0,13",0,"0,88",0,"0,82",0,"0,89",0,"0,92",0,"0,66",0,"0,20",0,"0,36",0
Kouoro,ML030524,Sikasso,ML0305,Sikasso,ML03,472,0,"0,12",0,"0,81",0,"0,88",0,"0,74",0,"0,90",0,"0,73",0,"0,19",0,"0,38",0
Kourouma,ML030525,Sikasso,ML0305,Sikasso,ML03,293,0,"0,09",0,"0,52",0,"0,86",0,"0,69",0,"0,80",0,"0,73",0,"0,16",0,"0,45",0
Lobougoula,ML030526,Sikasso,ML0305,Sikasso,ML03,1418,0,"0,11",0,"0,77",0,"0,92",0,"0,86",0,"0,78",0,"0,91",0,"0,08",0,"0,37",0
Miniko,ML030527,Sikasso,ML0305,Sikasso,ML03,128,0,"0,09",0,1,0,"0,81",0,"0,90",0,"0,86",0,"0,74",0,"0,35",0,"0,32",0
Miria,ML030528,Sikasso,ML0305,Sikasso,ML03,231,0,"0,13",0,1,0,"0,86",0,"0,92",0,"0,86",0,"0,72",0,"0,15",0,"0,34",0
Missirikoro,ML030529,Sikasso,ML0305,Sikasso,ML03,132,0,"0,12",0,1,0,"0,98",0,"0,95",0,"0,87",0,"0,85",0,"0,25",0,"0,28",0
Natien,ML030530,Sikasso,ML0305,Sikasso,ML03,207,0,"0,05",0,1,0,"0,97",0,"0,62",0,"0,83",0,"0,83",0,"0,21",0,"0,36",0
Niéna,ML030531,Sikasso,ML0305,Sikasso,ML03,1040,0,"0,11",0,"0,83",0,"0,87",0,"0,83",0,"0,85",0,"0,96",0,"0,05",0,"0,36",0
Nongo-Souala,ML030532,Sikasso,ML0305,Sikasso,ML03,264,0,"0,12",0,"0,37",0,"0,85",0,"0,92",0,"0,93",0,"0,82",0,"0,13",0,"0,41",0
N'tjikouna,ML030533,Sikasso,ML0305,Sikasso,ML03,104,0,"0,24",0,1,0,"0,85",0,1,0,"0,88",0,"0,80",0,"0,26",0,"0,28",0
Pimperna,ML030534,Sikasso,ML0305,Sikasso,ML03,161,0,"0,05",0,1,0,"0,97",0,"0,71",0,"0,86",0,"0,83",0,"0,15",0,"0,35",0
Sanzana,ML030535,Sikasso,ML0305,Sikasso,ML03,326,0,"0,13",0,"0,74",0,"0,90",0,"0,95",0,"0,92",0,"0,82",0,"0,08",0,"0,35",0
Sikasso,ML030536,Sikasso,ML0305,Sikasso,ML03,400,0,"0,19",0,"0,98",0,1,0,1,0,"0,91",0,"0,90",0,"0,43",0,"0,23",0
Sokourani Missirikoro,ML030537,Sikasso,ML0305,Sikasso,ML03,88,0,"0,08",0,"0,47",0,"0,97",0,"0,82",0,"0,82",0,"0,85",0,"0,32",0,"0,38",0
Tella,ML030538,Sikasso,ML0305,Sikasso,ML03,511,0,"0,04",0,1,0,"0,79",0,"0,54",0,"0,87",0,"0,68",0,"0,12",0,"0,42",0
Tiankadi,ML030539,Sikasso,ML0305,Sikasso,ML03,70,0,"0,13",0,"0,58",0,"0,87",0,"0,88",0,"0,83",0,"0,74",0,"0,31",0,"0,38",0
Waténi,ML030540,Sikasso,ML0305,Sikasso,ML03,211,0,"0,08",0,"0,49",0,"0,83",0,"0,81",0,"0,86",0,"0,66",0,"0,06",0,"0,46",0
Zanférébougou,ML030541,Sikasso,ML0305,Sikasso,ML03,68,0,0,0,0,0,"0,92",0,"0,12",0,"0,66",0,"0,82",0,"0,56",0,"0,56",0
Zangaradougou,ML030542,Sikasso,ML0305,Sikasso,ML03,99,0,"0,12",0,"0,75",0,"0,96",0,"0,90",0,"0,88",0,"0,87",0,"0,29",0,"0,32",0
Zaniena,ML030543,Sikasso,ML0305,Sikasso,ML03,174,0,"0,11",0,"0,67",0,"0,82",0,"0,79",0,"0,84",0,"0,69",0,"0,15",0,"0,42",0
Baya,ML030601,Yanfolila,ML0306,Sikasso,ML03,128,0,"0,12",0,"0,64",0,"0,80",0,"0,96",0,"0,98",0,"0,73",0,"0,63",0,"0,30",0
Bolo-Fouta,ML030602,Yanfolila,ML0306,Sikasso,ML03,171,0,"0,14",0,"0,80",0,"0,79",0,"0,96",0,"0,88",0,"0,72",0,"0,20",0,"0,36",0
Djallon-Foula,ML030603,Yanfolila,ML0306,Sikasso,ML03,471,0,"0,09",0,1,0,"0,73",0,"0,90",0,"0,78",0,"0,69",0,"0,13",0,"0,38",0
Djiguiya De Koloni,ML030604,Yanfolila,ML0306,Sikasso,ML03,558,0,"0,11",0,"0,68",0,"0,82",0,"0,78",0,"0,88",0,"0,70",0,"0,10",0,"0,42",0
Gouanan,ML030605,Yanfolila,ML0306,Sikasso,ML03,1747,0,"0,08",0,1,0,"0,85",0,"0,78",0,"0,85",0,"0,87",0,"0,03",0,"0,36",0
Gouandiaka,ML030606,Yanfolila,ML0306,Sikasso,ML03,1169,0,"0,09",0,1,0,"0,86",0,"0,82",0,"0,87",0,"0,73",0,"0,10",0,"0,36",0
Koussan,ML030607,Yanfolila,ML0306,Sikasso,ML03,1457,0,"0,07",0,"0,82",0,"0,94",0,"0,77",0,"0,79",0,"0,71",0,"0,04",0,"0,41",0
Sankarani,ML030608,Yanfolila,ML0306,Sikasso,ML03,229,0,"0,18",0,"0,66",0,"0,73",0,1,0,"0,84",0,"0,74",0,"0,26",0,"0,37",0
Sere Moussa Ani Samo de Siékorolé,ML030609,Yanfolila,ML0306,Sikasso,ML03,499,0,"0,09",0,1,0,"0,75",0,"0,96",0,"0,88",0,"0,78",0,"0,11",0,"0,35",0
Tagandougou,ML030610,Yanfolila,ML0306,Sikasso,ML03,613,0,"0,06",0,1,0,"0,79",0,"0,82",0,"0,89",0,"0,73",0,"0,19",0,"0,36",0
Wassoulou Balle,ML030611,Yanfolila,ML0306,Sikasso,ML03,1594,0,"0,10",0,1,0,"0,79",0,"0,87",0,"0,87",0,1,0,"0,14",0,"0,32",0
Yallankoro-Soloba,ML030612,Yanfolila,ML0306,Sikasso,ML03,285,0,"0,09",0,"0,59",0,"0,71",0,"0,83",0,"0,85",0,"0,74",0,"0,10",0,"0,44",0
Boura,ML030701,Yorosso,ML0307,Sikasso,ML03,887,0,"0,05",0,"0,45",0,"0,88",0,"0,50",0,"0,85",0,"0,42",0,"0,06",0,"0,54",0
Karangana,ML030702,Yorosso,ML0307,Sikasso,ML03,398,0,"0,10",0,"0,89",0,"0,91",0,"0,72",0,"0,96",0,"0,60",0,"0,15",0,"0,38",0
Kiffosso I,ML030703,Yorosso,ML0307,Sikasso,ML03,446,0,"0,05",0,"0,85",0,"0,89",0,"0,52",0,"0,94",0,"0,70",0,"0,06",0,"0,43",0
Koumbia,ML030704,Yorosso,ML0307,Sikasso,ML03,719,0,"0,04",0,1,0,"0,86",0,"0,44",0,"0,91",0,"0,87",0,"0,05",0,"0,41",0
Koury,ML030705,Yorosso,ML0307,Sikasso,ML03,712,0,"0,10",0,"0,64",0,"0,97",0,"0,86",0,"0,90",0,"0,42",0,"0,13",0,"0,42",0
Mahou,ML030706,Yorosso,ML0307,Sikasso,ML03,263,0,"0,10",0,"0,56",0,"0,82",0,"0,78",0,"0,81",0,"0,58",0,"0,14",0,"0,46",0
Menamba I,ML030707,Yorosso,ML0307,Sikasso,ML03,328,0,"0,07",0,"0,92",0,"0,90",0,"0,62",0,"0,88",0,"0,63",0,"0,13",0,"0,41",0
Ourikela,ML030708,Yorosso,ML0307,Sikasso,ML03,576,0,"0,12",0,"0,19",0,"0,91",0,"0,79",0,"0,91",0,"0,58",0,"0,10",0,"0,49",0
Yorosso,ML030709,Yorosso,ML0307,Sikasso,ML03,487,0,"0,09",0,1,0,"0,92",0,"0,78",0,"0,91",0,"0,61",0,"0,09",0,"0,37",0
Baraouéli,ML040101,Baraouéli,ML0401,Ségou,ML04,820,0,"0,13",0,"0,49",0,"0,71",0,"0,86",0,"0,94",0,"0,42",0,"0,20",0,"0,47",0
Boidié,ML040102,Baraouéli,ML0401,Ségou,ML04,509,0,"0,06",0,"0,47",0,"0,71",0,"0,55",0,"0,97",0,"0,58",0,"0,10",0,"0,51",0
Dougoufié,ML040103,Baraouéli,ML0401,Ségou,ML04,97,0,"0,05",0,1,0,"0,65",0,"0,74",0,"0,97",0,"0,24",0,"0,22",0,"0,45",0
Gouendo,ML040104,Baraouéli,ML0401,Ségou,ML04,366,0,"0,13",0,"0,62",0,"0,62",0,"0,80",0,"0,95",0,"0,56",0,"0,11",0,"0,46",0
Kalake,ML040105,Baraouéli,ML0401,Ségou,ML04,407,0,"0,05",0,"0,41",0,"0,71",0,"0,67",0,"0,94",0,"0,59",0,"0,09",0,"0,51",0
Konobougou,ML040106,Baraouéli,ML0401,Ségou,ML04,701,0,"0,09",0,"0,65",0,"0,71",0,"0,85",0,"0,91",0,"0,24",0,"0,25",0,"0,47",0
N'gassola,ML040107,Baraouéli,ML0401,Ségou,ML04,232,0,"0,13",0,"0,21",0,"0,58",0,"0,83",0,"0,95",0,"0,55",0,"0,18",0,"0,51",0
Sanando,ML040108,Baraouéli,ML0401,Ségou,ML04,886,0,"0,09",0,"0,44",0,"0,63",0,"0,71",0,"0,96",0,"0,60",0,"0,06",0,"0,50",0
Somo,ML040109,Baraouéli,ML0401,Ségou,ML04,109,0,"0,07",0,1,0,"0,66",0,"0,83",0,1,0,"0,51",0,"0,31",0,"0,37",0
Tamani,ML040110,Baraouéli,ML0401,Ségou,ML04,169,0,"0,09",0,1,0,"0,69",0,"0,97",0,"0,99",0,"0,56",0,"0,27",0,"0,35",0
Tesserla,ML040111,Baraouéli,ML0401,Ségou,ML04,173,0,"0,17",0,"0,21",0,"0,57",0,"0,92",0,"0,94",0,"0,55",0,"0,08",0,"0,51",0
Beguene,ML040201,Bla,ML0402,Ségou,ML04,328,0,"0,10",0,"0,16",0,"0,69",0,"0,83",0,"0,97",0,"0,55",0,"0,05",0,"0,52",0
Bla,ML040202,Bla,ML0402,Ségou,ML04,389,0,"0,12",0,"0,71",0,"0,70",0,"0,87",0,"0,94",0,"0,58",0,"0,42",0,"0,38",0
Diaramana,ML040203,Bla,ML0402,Ségou,ML04,342,0,"0,13",0,"0,79",0,"0,75",0,"0,87",0,"0,95",0,"0,60",0,"0,07",0,"0,41",0
Diena,ML040204,Bla,ML0402,Ségou,ML04,328,0,"0,10",0,"0,81",0,"0,64",0,"0,89",0,"0,92",0,"0,53",0,"0,06",0,"0,44",0
Dougouolo,ML040205,Bla,ML0402,Ségou,ML04,133,0,"0,16",0,1,0,"0,72",0,1,0,"0,94",0,"0,55",0,"0,21",0,"0,35",0
Falo,ML040206,Bla,ML0402,Ségou,ML04,1674,0,"0,09",0,"0,46",0,"0,64",0,"0,82",0,"0,95",0,"0,42",0,"0,03",0,"0,51",0
Fani,ML040207,Bla,ML0402,Ségou,ML04,313,0,"0,09",0,"0,58",0,"0,76",0,"0,89",0,"0,91",0,"0,57",0,"0,11",0,"0,44",0
Kazangasso,ML040208,Bla,ML0402,Ségou,ML04,247,0,"0,12",0,"0,30",0,"0,73",0,"0,81",0,"0,96",0,"0,54",0,"0,11",0,"0,49",0
Kemeni,ML040209,Bla,ML0402,Ségou,ML04,169,0,"0,12",0,1,0,"0,73",0,"0,97",0,"0,93",0,"0,57",0,"0,19",0,"0,36",0
Korodougou,ML040210,Bla,ML0402,Ségou,ML04,209,0,"0,10",0,"0,49",0,"0,74",0,"0,89",0,"0,95",0,"0,56",0,"0,16",0,"0,45",0
Koulandougou,ML040211,Bla,ML0402,Ségou,ML04,114,0,"0,18",0,"0,53",0,"0,77",0,1,0,"0,89",0,"0,57",0,"0,30",0,"0,39",0
Niala,ML040212,Bla,ML0402,Ségou,ML04,244,0,"0,16",0,"0,88",0,"0,68",0,"0,93",0,"0,95",0,"0,32",0,"0,08",0,"0,43",0
Samabogo,ML040213,Bla,ML0402,Ségou,ML04,202,0,"0,05",0,1,0,"0,73",0,"0,66",0,"0,94",0,"0,49",0,"0,14",0,"0,43",0
Somasso,ML040214,Bla,ML0402,Ségou,ML04,149,0,"0,11",0,"0,55",0,"0,71",0,"0,77",0,"0,94",0,"0,55",0,"0,03",0,"0,48",0
Tiemena,ML040215,Bla,ML0402,Ségou,ML04,167,0,"0,06",0,1,0,"0,66",0,"0,79",0,"0,92",0,"0,52",0,"0,13",0,"0,42",0
Touna,ML040216,Bla,ML0402,Ségou,ML04,545,0,"0,10",0,"0,62",0,"0,66",0,"0,83",0,"0,92",0,"0,64",0,"0,09",0,"0,45",0
Yangasso,ML040217,Bla,ML0402,Ségou,ML04,495,0,"0,16",0,"0,63",0,"0,78",0,"0,94",0,"0,93",0,"0,56",0,"0,16",0,"0,40",0
Boky Were,ML040301,Macina,ML0403,Ségou,ML04,220,0,"0,15",0,"0,46",0,"0,35",0,"0,98",0,"0,85",0,"0,48",0,"0,17",0,"0,51",0
Folomana,ML040302,Macina,ML0403,Ségou,ML04,146,0,"0,06",0,1,0,"0,60",0,"0,78",0,"0,87",0,"0,55",0,"0,27",0,"0,41",0
Kokry Centre,ML040303,Macina,ML0403,Ségou,ML04,160,0,"0,22",0,"0,51",0,"0,35",0,1,0,"0,90",0,"0,51",0,"0,16",0,"0,48",0
Kolongo,ML040304,Macina,ML0403,Ségou,ML04,484,0,"0,13",0,"0,61",0,"0,39",0,"0,96",0,"0,87",0,"0,47",0,"0,16",0,"0,49",0
Macina,ML040305,Macina,ML0403,Ségou,ML04,1100,0,"0,10",0,"0,53",0,"0,33",0,"0,85",0,"0,86",0,"0,78",0,"0,20",0,"0,48",0
Matomo,ML040306,Macina,ML0403,Ségou,ML04,462,0,"0,05",0,"0,45",0,"0,57",0,"0,59",0,"0,87",0,"0,55",0,"0,05",0,"0,55",0
Monimpébougou,ML040307,Macina,ML0403,Ségou,ML04,2249,0,"0,08",0,"0,15",0,"0,37",0,"0,68",0,"0,84",0,"0,33",0,0,0,"0,65",0
Saloba,ML040308,Macina,ML0403,Ségou,ML04,647,0,"0,14",0,"0,43",0,"0,62",0,"0,95",0,"0,89",0,"0,53",0,"0,08",0,"0,48",0
Sana,ML040309,Macina,ML0403,Ségou,ML04,501,0,"0,15",0,"0,52",0,"0,57",0,"0,89",0,"0,87",0,"0,55",0,"0,09",0,"0,48",0
Souleye,ML040310,Macina,ML0403,Ségou,ML04,388,0,"0,06",0,"0,52",0,"0,59",0,"0,56",0,"0,90",0,"0,57",0,"0,07",0,"0,53",0
Tongué,ML040311,Macina,ML0403,Ségou,ML04,129,0,"0,14",0,"0,45",0,"0,65",0,"0,97",0,"0,93",0,"0,53",0,"0,37",0,"0,42",0
Diabaly,ML040401,Niono,ML0404,Ségou,ML04,1538,0,"0,14",0,"0,32",0,"0,65",0,"0,96",0,"0,90",0,"0,47",0,"0,15",0,"0,49",0
Dogofry,ML040402,Niono,ML0404,Ségou,ML04,3820,0,"0,05",0,"0,30",0,"0,65",0,"0,79",0,"0,93",0,"0,51",0,"0,12",0,"0,52",0
Kala Siguida,ML040403,Niono,ML0404,Ségou,ML04,377,0,"0,13",0,"0,96",0,"0,59",0,"0,87",0,"0,97",0,"0,53",0,"0,21",0,"0,39",0
Mariko,ML040404,Niono,ML0404,Ségou,ML04,395,0,"0,08",0,"0,93",0,"0,60",0,"0,86",0,"0,97",0,"0,52",0,"0,12",0,"0,42",0
Nampalari,ML040405,Niono,ML0404,Ségou,ML04,5110,0,"0,06",0,"0,29",0,"0,50",0,"0,68",0,"0,84",0,"0,52",0,"0,03",0,"0,58",0
Niono,ML040406,Niono,ML0404,Ségou,ML04,491,0,"0,16",0,"0,50",0,"0,57",0,"0,96",0,"0,82",0,"0,49",0,"0,37",0,"0,45",0
Pogo,ML040407,Niono,ML0404,Ségou,ML04,550,0,"0,11",0,0,0,"0,49",0,"0,75",0,"0,86",0,"0,53",0,"0,05",0,"0,60",0
Siribala,ML040408,Niono,ML0404,Ségou,ML04,445,0,"0,15",0,"0,81",0,"0,53",0,"0,98",0,"0,95",0,"0,51",0,"0,10",0,"0,42",0
Sirifila Boundy,ML040409,Niono,ML0404,Ségou,ML04,159,0,"0,18",0,1,0,"0,58",0,"0,98",0,"0,90",0,"0,52",0,"0,37",0,"0,35",0
Sokolo,ML040410,Niono,ML0404,Ségou,ML04,2219,0,"0,11",0,"0,26",0,"0,68",0,"0,89",0,"0,94",0,"0,33",0,"0,02",0,"0,54",0
Toridaga Ko,ML040411,Niono,ML0404,Ségou,ML04,653,0,"0,09",0,"0,25",0,"0,57",0,"0,76",0,"0,86",0,"0,51",0,"0,05",0,"0,56",0
Yeredon Saniona,ML040412,Niono,ML0404,Ségou,ML04,307,0,"0,07",0,"0,01",0,"0,57",0,"0,67",0,"0,82",0,"0,56",0,"0,08",0,"0,60",0
Baramandougou,ML040501,San,ML0405,Ségou,ML04,205,0,"0,16",0,0,0,"0,84",0,"0,86",0,"0,94",0,"0,52",0,"0,05",0,"0,52",0
Dah,ML040502,San,ML0405,Ségou,ML04,290,0,"0,08",0,"0,71",0,"0,86",0,"0,75",0,"0,93",0,"0,63",0,"0,13",0,"0,42",0
Diakourouna,ML040503,San,ML0405,Ségou,ML04,367,0,"0,12",0,"0,16",0,"0,83",0,"0,93",0,"0,95",0,"0,64",0,"0,07",0,"0,47",0
Diéli,ML040504,San,ML0405,Ségou,ML04,280,0,"0,12",0,"0,85",0,"0,81",0,"0,93",0,"0,92",0,"0,64",0,"0,13",0,"0,37",0
Djéguena,ML040505,San,ML0405,Ségou,ML04,65,0,"0,14",0,"0,03",0,"0,82",0,1,0,"0,89",0,"0,60",0,"0,08",0,"0,49",0
Fion,ML040506,San,ML0405,Ségou,ML04,165,0,"0,11",0,0,0,"0,87",0,"0,85",0,"0,93",0,"0,56",0,"0,19",0,"0,50",0
Kaniégue,ML040507,San,ML0405,Ségou,ML04,109,0,"0,14",0,"0,52",0,"0,84",0,"0,95",0,"0,93",0,"0,68",0,"0,19",0,"0,39",0
Karaba,ML040508,San,ML0405,Ségou,ML04,123,0,"0,13",0,1,0,"0,86",0,"0,92",0,"0,94",0,"0,60",0,"0,31",0,"0,32",0
Kassorola,ML040509,San,ML0405,Ségou,ML04,421,0,"0,08",0,"0,99",0,"0,85",0,"0,69",0,"0,96",0,"0,74",0,"0,04",0,"0,38",0
Kava,ML040510,San,ML0405,Ségou,ML04,222,0,"0,14",0,1,0,"0,87",0,"0,93",0,"0,95",0,"0,60",0,"0,38",0,"0,30",0
Moribila,ML040511,San,ML0405,Ségou,ML04,134,0,"0,19",0,"0,50",0,"0,83",0,1,0,"0,95",0,"0,67",0,"0,08",0,"0,40",0
N'goa,ML040512,San,ML0405,Ségou,ML04,186,0,"0,13",0,0,0,"0,73",0,"0,97",0,"0,89",0,"0,59",0,"0,09",0,"0,51",0
Niamana,ML040513,San,ML0405,Ségou,ML04,103,0,"0,17",0,0,0,"0,80",0,1,0,"0,92",0,"0,60",0,"0,31",0,"0,46",0
Niasso,ML040514,San,ML0405,Ségou,ML04,311,0,"0,10",0,"0,52",0,"0,84",0,"0,78",0,"0,92",0,"0,64",0,"0,12",0,"0,44",0
N'torosso,ML040515,San,ML0405,Ségou,ML04,109,0,"0,07",0,1,0,"0,82",0,"0,74",0,"0,93",0,"0,62",0,"0,34",0,"0,35",0
Ouolon,ML040516,San,ML0405,Ségou,ML04,446,0,"0,11",0,"0,03",0,"0,53",0,"0,91",0,"0,91",0,"0,42",0,"0,09",0,"0,57",0
San,ML040517,San,ML0405,Ségou,ML04,170,0,"0,19",0,"0,88",0,"0,87",0,1,0,"0,91",0,"0,82",0,"0,60",0,"0,25",0
Siadougou,ML040518,San,ML0405,Ségou,ML04,578,0,"0,04",0,"0,61",0,"0,59",0,"0,53",0,"0,86",0,"0,56",0,"0,05",0,"0,54",0
Somo,ML040519,San,ML0405,Ségou,ML04,232,0,"0,12",0,"0,63",0,"0,90",0,"0,88",0,"0,94",0,"0,64",0,"0,14",0,"0,39",0
Sourountouna,ML040520,San,ML0405,Ségou,ML04,326,0,"0,10",0,"0,66",0,"0,87",0,"0,86",0,"0,94",0,"0,56",0,"0,14",0,"0,41",0
Sy,ML040521,San,ML0405,Ségou,ML04,371,0,"0,14",0,"0,71",0,"0,56",0,"0,84",0,"0,88",0,"0,56",0,"0,14",0,"0,45",0
Téné,ML040522,San,ML0405,Ségou,ML04,291,0,"0,12",0,"0,68",0,"0,89",0,"0,92",0,"0,94",0,"0,55",0,"0,20",0,"0,39",0
Teneni,ML040523,San,ML0405,Ségou,ML04,156,0,"0,18",0,0,0,"0,88",0,"0,98",0,"0,92",0,"0,59",0,"0,10",0,"0,48",0
Tourakolomba,ML040524,San,ML0405,Ségou,ML04,203,0,"0,02",0,0,0,"0,84",0,"0,36",0,"0,96",0,"0,96",0,"0,16",0,"0,53",0
Waki,ML040525,San,ML0405,Ségou,ML04,201,0,"0,07",0,1,0,"0,89",0,"0,70",0,"0,97",0,"0,63",0,"0,18",0,"0,37",0
Baguindabougou,ML040601,Ségou,ML0406,Ségou,ML04,702,0,"0,11",0,"0,29",0,"0,44",0,"0,85",0,"0,94",0,"0,56",0,"0,06",0,"0,54",0
Bellen,ML040602,Ségou,ML0406,Ségou,ML04,3189,0,"0,07",0,"0,25",0,"0,63",0,"0,78",0,"0,97",0,"0,52",0,"0,03",0,"0,54",0
Boussin,ML040603,Ségou,ML0406,Ségou,ML04,178,0,"0,19",0,"0,77",0,"0,51",0,"0,93",0,"0,89",0,"0,52",0,"0,11",0,"0,44",0
Cinzana,ML040604,Ségou,ML0406,Ségou,ML04,1050,0,"0,09",0,"0,31",0,"0,63",0,"0,79",0,"0,91",0,"0,36",0,"0,06",0,"0,55",0
Diédougou,ML040605,Ségou,ML0406,Ségou,ML04,409,0,"0,09",0,0,0,"0,59",0,"0,88",0,"0,87",0,"0,51",0,"0,08",0,"0,57",0
Diganibougou,ML040606,Ségou,ML0406,Ségou,ML04,571,0,"0,12",0,"0,32",0,"0,47",0,"0,93",0,"0,95",0,"0,61",0,"0,08",0,"0,50",0
Dioro,ML040607,Ségou,ML0406,Ségou,ML04,586,0,"0,08",0,"0,62",0,"0,55",0,"0,73",0,"0,91",0,"0,60",0,"0,16",0,"0,48",0
Diouna,ML040608,Ségou,ML0406,Ségou,ML04,175,0,"0,17",0,"0,37",0,"0,60",0,"0,95",0,"0,91",0,"0,51",0,"0,16",0,"0,48",0
Dougabougou,ML040609,Ségou,ML0406,Ségou,ML04,180,0,"0,21",0,1,0,"0,47",0,1,0,"0,90",0,"0,56",0,"0,19",0,"0,38",0
Farako,ML040610,Ségou,ML0406,Ségou,ML04,191,0,"0,09",0,1,0,"0,48",0,"0,85",0,"0,96",0,"0,59",0,"0,08",0,"0,42",0
Farakou Massa,ML040611,Ségou,ML0406,Ségou,ML04,109,0,"0,13",0,"0,84",0,"0,54",0,"0,88",0,"0,93",0,"0,54",0,"0,20",0,"0,42",0
Fatine,ML040612,Ségou,ML0406,Ségou,ML04,1006,0,"0,11",0,"0,35",0,"0,54",0,"0,81",0,"0,90",0,"0,53",0,"0,07",0,"0,53",0
Kamiandougou,ML040613,Ségou,ML0406,Ségou,ML04,311,0,"0,09",0,0,0,"0,61",0,"0,77",0,"0,83",0,"0,33",0,"0,15",0,"0,60",0
Katiéna,ML040614,Ségou,ML0406,Ségou,ML04,998,0,"0,07",0,"0,41",0,"0,64",0,"0,59",0,"0,93",0,"0,42",0,"0,08",0,"0,55",0
Konodimini,ML040615,Ségou,ML0406,Ségou,ML04,362,0,"0,13",0,"0,74",0,"0,60",0,"0,93",0,"0,96",0,"0,29",0,"0,23",0,"0,45",0
Markala,ML040616,Ségou,ML0406,Ségou,ML04,318,0,"0,19",0,1,0,"0,46",0,"0,98",0,"0,89",0,"0,48",0,"0,22",0,"0,40",0
Massala,ML040617,Ségou,ML0406,Ségou,ML04,89,0,"0,25",0,1,0,"0,62",0,"0,97",0,"0,96",0,"0,41",0,"0,34",0,"0,35",0
N'gara,ML040618,Ségou,ML0406,Ségou,ML04,159,0,"0,08",0,1,0,"0,62",0,"0,93",0,"0,96",0,"0,43",0,"0,22",0,"0,39",0
N'koumandougou,ML040619,Ségou,ML0406,Ségou,ML04,2041,0,"0,06",0,"0,30",0,"0,51",0,"0,73",0,"0,97",0,"0,55",0,"0,04",0,"0,55",0
Pelengana,ML040620,Ségou,ML0406,Ségou,ML04,359,0,"0,16",0,"0,89",0,"0,57",0,"0,98",0,"0,90",0,"0,80",0,"0,26",0,"0,35",0
Sakoiba,ML040621,Ségou,ML0406,Ségou,ML04,360,0,"0,16",0,"0,94",0,"0,57",0,"0,98",0,"0,91",0,"0,35",0,"0,17",0,"0,42",0
Sama Foulala,ML040622,Ségou,ML0406,Ségou,ML04,154,0,"0,07",0,1,0,"0,50",0,"0,79",0,"0,96",0,"0,51",0,"0,32",0,"0,40",0
Saminé,ML040623,Ségou,ML0406,Ségou,ML04,197,0,"0,19",0,"0,51",0,"0,59",0,"0,98",0,"0,94",0,"0,55",0,"0,19",0,"0,44",0
Sansanding,ML040624,Ségou,ML0406,Ségou,ML04,315,0,"0,06",0,1,0,"0,46",0,"0,76",0,"0,91",0,"0,55",0,"0,24",0,"0,43",0
Sébougou,ML040625,Ségou,ML0406,Ségou,ML04,115,0,"0,16",0,1,0,"0,59",0,1,0,"0,93",0,"0,61",0,"0,46",0,"0,32",0
Ségou,ML040626,Ségou,ML0406,Ségou,ML04,37,0,"0,42",0,1,0,"0,58",0,1,0,"0,92",0,"0,76",0,"0,91",0,"0,20",0
Sibila,ML040627,Ségou,ML0406,Ségou,ML04,280,0,"0,12",0,"0,56",0,"0,43",0,1,0,"0,92",0,"0,54",0,"0,10",0,"0,47",0
Soignébougou,ML040628,Ségou,ML0406,Ségou,ML04,81,0,"0,15",0,"0,47",0,"0,59",0,1,0,"0,92",0,"0,51",0,"0,31",0,"0,43",0
Souba,ML040629,Ségou,ML0406,Ségou,ML04,1104,0,"0,08",0,"0,15",0,"0,52",0,"0,77",0,1,0,"0,60",0,"0,06",0,"0,55",0
Togou,ML040630,Ségou,ML0406,Ségou,ML04,147,0,"0,15",0,"0,74",0,"0,52",0,1,0,"0,89",0,"0,52",0,"0,26",0,"0,42",0
Benena,ML040701,Tominian,ML0407,Ségou,ML04,544,0,"0,06",0,"0,50",0,"0,99",0,"0,67",0,"0,92",0,"0,47",0,"0,11",0,"0,47",0
Diora,ML040702,Tominian,ML0407,Ségou,ML04,443,0,"0,14",0,1,0,"0,92",0,"0,83",0,"0,92",0,"0,56",0,"0,08",0,"0,36",0
Fangasso,ML040703,Tominian,ML0407,Ségou,ML04,685,0,"0,13",0,"0,20",0,"0,88",0,"0,92",0,"0,93",0,"0,50",0,"0,07",0,"0,48",0
Koula,ML040704,Tominian,ML0407,Ségou,ML04,689,0,"0,07",0,0,0,"0,81",0,"0,71",0,"0,85",0,"0,54",0,"0,05",0,"0,57",0
Lanfiala,ML040705,Tominian,ML0407,Ségou,ML04,358,0,"0,14",0,0,0,"0,82",0,"0,85",0,"0,64",0,"0,54",0,"0,08",0,"0,56",0
Mafouné,ML040706,Tominian,ML0407,Ségou,ML04,780,0,"0,11",0,"0,26",0,"0,85",0,"0,78",0,"0,84",0,"0,33",0,"0,03",0,"0,54",0
Mandiakuy,ML040707,Tominian,ML0407,Ségou,ML04,507,0,"0,09",0,"0,63",0,"0,97",0,"0,72",0,"0,89",0,"0,51",0,"0,08",0,"0,45",0
Ouan,ML040708,Tominian,ML0407,Ségou,ML04,266,0,"0,13",0,"0,72",0,"0,83",0,"0,77",0,"0,92",0,"0,44",0,"0,13",0,"0,44",0
Sanékuy,ML040709,Tominian,ML0407,Ségou,ML04,338,0,"0,10",0,"0,55",0,"0,94",0,"0,71",0,"0,96",0,"0,56",0,"0,03",0,"0,45",0
Timissa,ML040710,Tominian,ML0407,Ségou,ML04,1247,0,"0,08",0,"0,15",0,"0,82",0,"0,66",0,"0,84",0,"0,36",0,"0,02",0,"0,58",0
Tominian,ML040711,Tominian,ML0407,Ségou,ML04,540,0,"0,13",0,"0,72",0,"0,94",0,"0,93",0,"0,97",0,"0,56",0,"0,17",0,"0,37",0
Yasso,ML040712,Tominian,ML0407,Ségou,ML04,394,0,"0,10",0,"0,62",0,"0,92",0,"0,81",0,"0,95",0,"0,59",0,"0,09",0,"0,42",0
Bandiagara,ML050101,Bandiagara,ML0501,Mopti,ML05,9,0,"0,90",0,1,0,"0,89",0,1,0,"0,72",0,"0,63",0,"0,98",0,"0,13",0
Bara Sara,ML050102,Bandiagara,ML0501,Mopti,ML05,629,0,"0,11",0,"0,74",0,"0,88",0,"0,83",0,"0,68",0,"0,73",0,"0,10",0,"0,42",0
Borko,ML050103,Bandiagara,ML0501,Mopti,ML05,178,0,"0,09",0,1,0,"0,79",0,"0,88",0,"0,36",0,"0,49",0,"0,17",0,"0,46",0
Dandoli,ML050104,Bandiagara,ML0501,Mopti,ML05,173,0,"0,19",0,1,0,"0,88",0,"0,99",0,"0,65",0,"0,63",0,"0,43",0,"0,32",0
Diamnati,ML050105,Bandiagara,ML0501,Mopti,ML05,344,0,"0,15",0,"0,63",0,"0,78",0,"0,93",0,"0,62",0,"0,51",0,"0,12",0,"0,47",0
Dogani Béré,ML050106,Bandiagara,ML0501,Mopti,ML05,195,0,"0,18",0,"0,31",0,"0,82",0,"0,99",0,"0,65",0,"0,50",0,"0,12",0,"0,49",0
Doucoumbo,ML050107,Bandiagara,ML0501,Mopti,ML05,732,0,"0,07",0,1,0,"0,90",0,"0,83",0,"0,76",0,"0,64",0,"0,07",0,"0,39",0
Dourou,ML050108,Bandiagara,ML0501,Mopti,ML05,301,0,"0,06",0,1,0,"0,86",0,"0,65",0,"0,40",0,"0,64",0,"0,25",0,"0,45",0
Kendé,ML050109,Bandiagara,ML0501,Mopti,ML05,328,0,"0,11",0,"0,32",0,"0,81",0,"0,90",0,"0,78",0,"0,58",0,"0,12",0,"0,48",0
Kendié,ML050110,Bandiagara,ML0501,Mopti,ML05,1074,0,"0,09",0,"0,36",0,"0,83",0,"0,75",0,"0,74",0,"0,38",0,"0,05",0,"0,54",0
Lowol Guéou,ML050111,Bandiagara,ML0501,Mopti,ML05,323,0,"0,13",0,"0,20",0,"0,90",0,"0,82",0,"0,37",0,"0,48",0,"0,10",0,"0,57",0
Métoumou,ML050112,Bandiagara,ML0501,Mopti,ML05,203,0,"0,06",0,0,0,"0,79",0,"0,77",0,"0,42",0,"0,42",0,"0,16",0,"0,63",0
Ondougou,ML050113,Bandiagara,ML0501,Mopti,ML05,95,0,"0,11",0,0,0,"0,78",0,"0,97",0,"0,31",0,"0,53",0,"0,22",0,"0,58",0
Pélou,ML050114,Bandiagara,ML0501,Mopti,ML05,61,0,0,0,1,0,"0,86",0,"0,71",0,"0,56",0,"0,64",0,"0,21",0,"0,43",0
Pignari,ML050115,Bandiagara,ML0501,Mopti,ML05,467,0,"0,08",0,"0,59",0,"0,93",0,"0,55",0,"0,71",0,"0,67",0,"0,10",0,"0,48",0
Pignari Bana,ML050116,Bandiagara,ML0501,Mopti,ML05,1028,0,"0,06",0,"0,41",0,"0,97",0,"0,59",0,"0,68",0,"0,60",0,"0,06",0,"0,52",0
Sangha,ML050117,Bandiagara,ML0501,Mopti,ML05,362,0,"0,11",0,"0,47",0,"0,83",0,"0,77",0,"0,24",0,"0,61",0,"0,15",0,"0,55",0
Ségué Iré,ML050118,Bandiagara,ML0501,Mopti,ML05,113,0,"0,20",0,"0,65",0,"0,77",0,"0,97",0,"0,63",0,"0,47",0,"0,30",0,"0,43",0
Soroly,ML050119,Bandiagara,ML0501,Mopti,ML05,106,0,"0,20",0,"0,95",0,"0,71",0,1,0,"0,69",0,"0,62",0,"0,30",0,"0,36",0
Timiri,ML050120,Bandiagara,ML0501,Mopti,ML05,669,0,"0,11",0,"0,17",0,"0,87",0,"0,74",0,"0,80",0,"0,62",0,"0,04",0,"0,52",0
Wadouba,ML050121,Bandiagara,ML0501,Mopti,ML05,388,0,"0,07",0,1,0,"0,74",0,"0,76",0,"0,59",0,"0,73",0,"0,09",0,"0,43",0
Bankass,ML050201,Bankass,ML0502,Mopti,ML05,362,0,"0,14",0,"0,43",0,"0,86",0,"0,87",0,"0,67",0,"0,73",0,"0,20",0,"0,44",0
Baye,ML050202,Bankass,ML0502,Mopti,ML05,1419,0,"0,10",0,"0,40",0,"0,88",0,"0,78",0,"0,75",0,"0,61",0,"0,04",0,"0,49",0
Diallassagou,ML050203,Bankass,ML0502,Mopti,ML05,340,0,"0,16",0,"0,46",0,"0,83",0,"0,97",0,"0,69",0,"0,60",0,"0,09",0,"0,46",0
Dimbal Habé,ML050204,Bankass,ML0502,Mopti,ML05,286,0,"0,09",0,"0,61",0,"0,85",0,"0,86",0,"0,57",0,"0,62",0,"0,12",0,"0,47",0
Kani Bozon,ML050205,Bankass,ML0502,Mopti,ML05,179,0,"0,13",0,"0,52",0,"0,85",0,"0,85",0,"0,36",0,"0,66",0,"0,16",0,"0,50",0
Koulogon Habé,ML050206,Bankass,ML0502,Mopti,ML05,218,0,"0,14",0,0,0,"0,84",0,"0,78",0,"0,74",0,"0,64",0,"0,05",0,"0,54",0
Lessagou Habé,ML050207,Bankass,ML0502,Mopti,ML05,209,0,"0,10",0,"0,23",0,"0,81",0,"0,93",0,"0,68",0,"0,51",0,"0,09",0,"0,52",0
Ouonkoro,ML050208,Bankass,ML0502,Mopti,ML05,763,0,"0,10",0,0,0,"0,75",0,"0,75",0,"0,73",0,"0,60",0,"0,05",0,"0,58",0
Ségué,ML050209,Bankass,ML0502,Mopti,ML05,1141,0,"0,10",0,"0,18",0,"0,83",0,"0,81",0,"0,65",0,"0,51",0,"0,06",0,"0,55",0
Sokoura,ML050210,Bankass,ML0502,Mopti,ML05,888,0,"0,12",0,0,0,"0,77",0,"0,85",0,"0,67",0,"0,64",0,"0,03",0,"0,56",0
Soubala,ML050211,Bankass,ML0502,Mopti,ML05,153,0,"0,07",0,0,0,"0,84",0,"0,76",0,"0,71",0,"0,61",0,"0,12",0,"0,56",0
Tori,ML050212,Bankass,ML0502,Mopti,ML05,334,0,"0,04",0,0,0,"0,80",0,"0,54",0,"0,72",0,"0,61",0,"0,05",0,"0,61",0
Dandougou Fakala,ML050301,Djenné,ML0503,Mopti,ML05,259,0,"0,05",0,"0,55",0,"0,83",0,"0,55",0,"0,91",0,"0,24",0,"0,13",0,"0,53",0
Derrary,ML050302,Djenné,ML0503,Mopti,ML05,177,0,"0,15",0,0,0,"0,47",0,"0,96",0,"0,85",0,"0,59",0,"0,16",0,"0,54",0
Djenné,ML050303,Djenné,ML0503,Mopti,ML05,276,0,"0,12",0,"0,67",0,"0,47",0,"0,88",0,"0,87",0,"0,64",0,"0,38",0,"0,42",0
Fakala,ML050304,Djenné,ML0503,Mopti,ML05,578,0,"0,13",0,"0,60",0,"0,89",0,"0,86",0,"0,88",0,"0,82",0,"0,11",0,"0,39",0
Femaye,ML050305,Djenné,ML0503,Mopti,ML05,176,0,"0,16",0,0,0,"0,44",0,"0,97",0,"0,89",0,"0,61",0,"0,11",0,"0,55",0
Kéwa,ML050306,Djenné,ML0503,Mopti,ML05,1060,0,"0,04",0,0,0,"0,42",0,"0,50",0,"0,85",0,"0,57",0,"0,02",0,"0,66",0
Madiama,ML050307,Djenné,ML0503,Mopti,ML05,174,0,"0,18",0,1,0,"0,83",0,"0,96",0,"0,89",0,"0,51",0,"0,23",0,"0,34",0
Néma Badenyakafo,ML050308,Djenné,ML0503,Mopti,ML05,944,0,"0,11",0,"0,23",0,"0,52",0,"0,81",0,"0,89",0,"0,51",0,"0,03",0,"0,55",0
Niansanari,ML050309,Djenné,ML0503,Mopti,ML05,157,0,"0,16",0,0,0,"0,79",0,"0,99",0,"0,91",0,"0,48",0,"0,13",0,"0,51",0
Ouro Ali,ML050310,Djenné,ML0503,Mopti,ML05,181,0,"0,09",0,"0,62",0,"0,49",0,"0,85",0,"0,84",0,"0,58",0,"0,24",0,"0,47",0
Pondori,ML050311,Djenné,ML0503,Mopti,ML05,209,0,"0,21",0,"0,12",0,"0,50",0,1,0,"0,92",0,"0,53",0,"0,15",0,"0,51",0
Togué Mourari,ML050312,Djenné,ML0503,Mopti,ML05,314,0,"0,12",0,"0,39",0,0,0,"0,83",0,"0,82",0,"0,57",0,"0,13",0,"0,59",0
Dallah,ML050401,Douentza,ML0504,Mopti,ML05,1211,0,"0,08",0,"0,31",0,"0,70",0,"0,77",0,"0,62",0,"0,50",0,"0,05",0,"0,57",0
Dangol Boré,ML050402,Douentza,ML0504,Mopti,ML05,2588,0,"0,06",0,"0,86",0,"0,82",0,"0,68",0,"0,81",0,"0,46",0,"0,04",0,"0,47",0
Débéré,ML050403,Douentza,ML0504,Mopti,ML05,685,0,"0,08",0,"0,68",0,"0,71",0,"0,83",0,"0,64",0,"0,48",0,"0,12",0,"0,49",0
Dianwély,ML050404,Douentza,ML0504,Mopti,ML05,215,0,"0,17",0,0,0,"0,77",0,"0,89",0,"0,55",0,"0,46",0,"0,20",0,"0,57",0
Djaptodji,ML050405,Douentza,ML0504,Mopti,ML05,3236,0,"0,06",0,"0,30",0,"0,44",0,"0,71",0,"0,93",0,"0,37",0,"0,06",0,"0,59",0
Douentza,ML050406,Douentza,ML0504,Mopti,ML05,159,0,"0,34",0,"0,51",0,"0,75",0,1,0,"0,61",0,"0,48",0,"0,60",0,"0,39",0
Gandamia,ML050407,Douentza,ML0504,Mopti,ML05,933,0,"0,04",0,"0,48",0,"0,67",0,"0,44",0,"0,65",0,"0,47",0,"0,06",0,"0,60",0
Hairé,ML050408,Douentza,ML0504,Mopti,ML05,3704,0,"0,07",0,"0,47",0,"0,70",0,"0,66",0,"0,78",0,"0,50",0,"0,01",0,"0,54",0
Hombori,ML050409,Douentza,ML0504,Mopti,ML05,2197,0,"0,06",0,"0,42",0,"0,59",0,"0,59",0,"0,76",0,"0,47",0,"0,05",0,"0,58",0
Kéréna,ML050410,Douentza,ML0504,Mopti,ML05,421,0,"0,09",0,0,0,"0,71",0,"0,84",0,"0,90",0,"0,49",0,"0,14",0,"0,55",0
Korarou,ML050411,Douentza,ML0504,Mopti,ML05,980,0,"0,04",0,"0,72",0,"0,64",0,"0,55",0,"0,94",0,"0,45",0,"0,12",0,"0,51",0
Koubéwel Koundia,ML050412,Douentza,ML0504,Mopti,ML05,426,0,"0,17",0,"0,83",0,"0,72",0,"0,99",0,"0,48",0,"0,49",0,"0,07",0,"0,46",0
Mondoro,ML050413,Douentza,ML0504,Mopti,ML05,5665,0,"0,06",0,"0,08",0,"0,70",0,"0,64",0,"0,91",0,"0,49",0,"0,02",0,"0,59",0
Pétaka,ML050414,Douentza,ML0504,Mopti,ML05,277,0,"0,07",0,"0,90",0,"0,71",0,"0,91",0,"0,16",0,"0,49",0,"0,14",0,"0,52",0
Tedie,ML050415,Douentza,ML0504,Mopti,ML05,165,0,"0,10",0,0,0,"0,68",0,"0,91",0,"0,40",0,"0,46",0,"0,11",0,"0,62",0
Bamba,ML050501,Koro,ML0505,Mopti,ML05,135,0,"0,19",0,0,0,"0,81",0,1,0,"0,24",0,"0,54",0,"0,24",0,"0,57",0
Barapireli,ML050502,Koro,ML0505,Mopti,ML05,201,0,"0,13",0,0,0,"0,90",0,"0,83",0,"0,69",0,"0,69",0,"0,11",0,"0,52",0
Bondo,ML050503,Koro,ML0505,Mopti,ML05,449,0,"0,10",0,0,0,"0,93",0,"0,81",0,"0,72",0,"0,69",0,"0,06",0,"0,53",0
Diankabou,ML050504,Koro,ML0505,Mopti,ML05,1176,0,"0,08",0,0,0,"0,84",0,"0,65",0,"0,77",0,"0,54",0,"0,11",0,"0,57",0
Dinangourou,ML050505,Koro,ML0505,Mopti,ML05,1771,0,"0,07",0,0,0,"0,78",0,"0,63",0,"0,94",0,"0,54",0,"0,01",0,"0,57",0
Diougani,ML050506,Koro,ML0505,Mopti,ML05,2087,0,"0,05",0,0,0,"0,89",0,"0,53",0,"0,91",0,"0,57",0,"0,02",0,"0,57",0
Dougouténé I,ML050507,Koro,ML0505,Mopti,ML05,447,0,"0,11",0,0,0,"0,91",0,"0,85",0,"0,70",0,"0,66",0,"0,07",0,"0,53",0
Dougouténé II,ML050508,Koro,ML0505,Mopti,ML05,265,0,"0,11",0,0,0,"0,87",0,"0,94",0,"0,75",0,"0,73",0,"0,07",0,"0,50",0
Kassa,ML050509,Koro,ML0505,Mopti,ML05,151,0,"0,20",0,0,0,"0,81",0,"0,98",0,"0,40",0,"0,46",0,"0,11",0,"0,57",0
Koporo Pen,ML050510,Koro,ML0505,Mopti,ML05,286,0,"0,11",0,"0,49",0,"0,90",0,"0,84",0,"0,71",0,"0,67",0,"0,03",0,"0,47",0
Koporokendie Na,ML050511,Koro,ML0505,Mopti,ML05,246,0,"0,08",0,1,0,"0,89",0,"0,72",0,"0,70",0,"0,73",0,"0,13",0,"0,39",0
Koro,ML050512,Koro,ML0505,Mopti,ML05,1809,0,"0,12",0,"0,24",0,"0,95",0,"0,89",0,"0,79",0,"0,76",0,"0,20",0,"0,44",0
Madougou,ML050513,Koro,ML0505,Mopti,ML05,600,0,"0,05",0,0,0,"0,88",0,"0,59",0,"0,66",0,"0,63",0,"0,04",0,"0,59",0
Pel Maoude,ML050514,Koro,ML0505,Mopti,ML05,203,0,"0,10",0,"0,52",0,"0,91",0,"0,92",0,"0,75",0,"0,68",0,"0,12",0,"0,43",0
Yoro,ML050515,Koro,ML0505,Mopti,ML05,814,0,"0,06",0,0,0,"0,74",0,"0,45",0,"0,95",0,"0,54",0,"0,10",0,"0,59",0
Youdiou,ML050516,Koro,ML0505,Mopti,ML05,206,0,"0,10",0,0,0,"0,88",0,"0,80",0,"0,74",0,"0,71",0,"0,10",0,"0,53",0
Bassirou,ML050601,Mopti,ML0506,Mopti,ML05,52,0,"0,26",0,1,0,"0,96",0,1,0,"0,85",0,"0,54",0,"0,41",0,"0,28",0
Borondougou,ML050602,Mopti,ML0506,Mopti,ML05,97,0,"0,15",0,"0,51",0,"0,92",0,1,0,"0,86",0,"0,47",0,"0,20",0,"0,41",0
Dialloube,ML050603,Mopti,ML0506,Mopti,ML05,1425,0,"0,05",0,0,0,0,0,"0,54",0,"0,82",0,"0,52",0,"0,02",0,"0,72",0
Fatoma,ML050604,Mopti,ML0506,Mopti,ML05,322,0,"0,07",0,"0,66",0,"0,98",0,"0,88",0,"0,82",0,"0,38",0,"0,07",0,"0,45",0
Konna,ML050605,Mopti,ML0506,Mopti,ML05,838,0,"0,09",0,"0,87",0,"0,90",0,"0,74",0,"0,86",0,"0,33",0,"0,11",0,"0,44",0
Korombana,ML050606,Mopti,ML0506,Mopti,ML05,967,0,"0,09",0,"0,21",0,"0,79",0,"0,85",0,"0,83",0,"0,42",0,"0,03",0,"0,54",0
Koubaye,ML050607,Mopti,ML0506,Mopti,ML05,231,0,"0,13",0,0,0,0,0,"0,75",0,"0,85",0,"0,60",0,"0,10",0,"0,65",0
Kounari,ML050608,Mopti,ML0506,Mopti,ML05,416,0,"0,09",0,"0,55",0,"0,97",0,"0,72",0,"0,81",0,"0,57",0,"0,09",0,"0,46",0
Mopti,ML050609,Mopti,ML0506,Mopti,ML05,40,0,"0,48",0,"0,88",0,"0,98",0,1,0,"0,84",0,"0,66",0,"0,62",0,"0,22",0
Ouro Modi,ML050610,Mopti,ML0506,Mopti,ML05,115,0,"0,16",0,"0,55",0,0,0,"0,95",0,"0,81",0,"0,58",0,"0,12",0,"0,55",0
Ouroube Doude,ML050611,Mopti,ML0506,Mopti,ML05,333,0,"0,12",0,"0,36",0,"0,80",0,"0,84",0,"0,82",0,"0,45",0,"0,20",0,"0,49",0
Sasalbe,ML050612,Mopti,ML0506,Mopti,ML05,259,0,"0,08",0,0,0,0,0,"0,75",0,"0,83",0,"0,59",0,"0,15",0,"0,66",0
Sio,ML050613,Mopti,ML0506,Mopti,ML05,559,0,"0,08",0,"0,84",0,"0,98",0,"0,74",0,"0,87",0,"0,78",0,"0,07",0,"0,38",0
Socoura,ML050614,Mopti,ML0506,Mopti,ML05,698,0,"0,14",0,"0,31",0,"0,99",0,"0,96",0,"0,86",0,"0,73",0,"0,16",0,"0,41",0
Soye,ML050615,Mopti,ML0506,Mopti,ML05,930,0,"0,09",0,0,0,"0,41",0,"0,78",0,"0,88",0,"0,63",0,"0,02",0,"0,60",0
Diafarabé,ML050701,Ténenkou,ML0507,Mopti,ML05,625,0,"0,11",0,"0,25",0,0,0,"0,78",0,"0,91",0,"0,56",0,"0,09",0,"0,61",0
Diaka,ML050702,Ténenkou,ML0507,Mopti,ML05,1241,0,"0,10",0,"0,22",0,"0,28",0,"0,76",0,"0,90",0,"0,56",0,"0,02",0,"0,59",0
Diondiori,ML050703,Ténenkou,ML0507,Mopti,ML05,551,0,"0,07",0,0,0,"0,26",0,"0,61",0,"0,84",0,"0,56",0,"0,04",0,"0,66",0
Kareri,ML050704,Ténenkou,ML0507,Mopti,ML05,4915,0,"0,08",0,0,0,"0,40",0,"0,65",0,"0,78",0,"0,54",0,"0,01",0,"0,65",0
Ouro Ardo,ML050705,Ténenkou,ML0507,Mopti,ML05,329,0,"0,15",0,0,0,"0,24",0,"0,98",0,"0,85",0,"0,56",0,"0,21",0,"0,57",0
Ouro Guire,ML050706,Ténenkou,ML0507,Mopti,ML05,278,0,"0,07",0,"0,69",0,"0,28",0,"0,68",0,"0,86",0,"0,56",0,"0,05",0,"0,54",0
Sougoulbe,ML050707,Ténenkou,ML0507,Mopti,ML05,243,0,"0,09",0,0,0,"0,23",0,"0,88",0,"0,79",0,"0,55",0,"0,15",0,"0,61",0
Ténenkou,ML050708,Ténenkou,ML0507,Mopti,ML05,9,0,1,0,"0,33",0,"0,30",0,1,0,"0,86",0,"0,56",0,1,0,"0,28",0
Togoro Kotia,ML050709,Ténenkou,ML0507,Mopti,ML05,1261,0,"0,07",0,0,0,0,0,"0,64",0,"0,88",0,"0,59",0,"0,04",0,"0,68",0
Toguére-Coumbe,ML050710,Ténenkou,ML0507,Mopti,ML05,2251,0,"0,09",0,0,0,0,0,"0,76",0,"0,82",0,"0,53",0,0,0,"0,69",0
Bimbéré Tama,ML050801,Youwarou,ML0508,Mopti,ML05,617,0,"0,04",0,0,0,"0,18",0,"0,40",0,"0,91",0,"0,51",0,"0,08",0,"0,70",0
Déboye,ML050802,Youwarou,ML0508,Mopti,ML05,1006,0,"0,07",0,0,0,0,0,"0,56",0,"0,93",0,"0,46",0,"0,03",0,"0,71",0
Dirma,ML050803,Youwarou,ML0508,Mopti,ML05,465,0,"0,14",0,0,0,0,0,"0,94",0,"0,83",0,"0,40",0,"0,12",0,"0,65",0
Dongo,ML050804,Youwarou,ML0508,Mopti,ML05,353,0,"0,11",0,0,0,0,0,"0,96",0,"0,77",0,"0,36",0,"0,10",0,"0,67",0
Farimaké,ML050805,Youwarou,ML0508,Mopti,ML05,3811,0,"0,05",0,"0,11",0,"0,47",0,"0,66",0,"0,63",0,"0,44",0,"0,09",0,"0,65",0
N'dodjiga,ML050806,Youwarou,ML0508,Mopti,ML05,827,0,"0,06",0,0,0,0,0,"0,57",0,"0,79",0,"0,35",0,"0,08",0,"0,74",0
Youwarou,ML050807,Youwarou,ML0508,Mopti,ML05,894,0,"0,10",0,0,0,"0,40",0,"0,84",0,"0,82",0,"0,42",0,"0,05",0,"0,63",0
Arham,ML060101,Diré,ML0601,Tombouctou,ML06,96,0,"0,03",0,0,0,"0,76",0,"0,79",0,"0,83",0,"0,25",0,"0,14",0,"0,60",0
Binga,ML060102,Diré,ML0601,Tombouctou,ML06,259,0,"0,03",0,0,0,0,0,"0,47",0,"0,91",0,"0,03",0,"0,03",0,"0,79",0
Bourem Sidi Amar,ML060103,Diré,ML0601,Tombouctou,ML06,98,0,"0,18",0,0,0,"0,77",0,"0,98",0,"0,81",0,"0,25",0,"0,27",0,"0,54",0
Dangha,ML060104,Diré,ML0601,Tombouctou,ML06,219,0,"0,01",0,0,0,"0,41",0,"0,35",0,"0,92",0,"0,23",0,"0,13",0,"0,71",0
Diré,ML060105,Diré,ML0601,Tombouctou,ML06,158,0,"0,16",0,"0,43",0,"0,79",0,"0,91",0,"0,86",0,"0,25",0,"0,52",0,"0,44",0
Garbakoira,ML060106,Diré,ML0601,Tombouctou,ML06,179,0,0,0,0,0,"0,41",0,0,0,"0,92",0,"0,32",0,"0,10",0,"0,75",0
Haibongo,ML060107,Diré,ML0601,Tombouctou,ML06,239,0,0,0,0,0,"0,78",0,0,0,"0,91",0,"0,28",0,"0,14",0,"0,70",0
Kirchamba,ML060108,Diré,ML0601,Tombouctou,ML06,83,0,0,0,0,0,"0,78",0,"0,10",0,"0,88",0,"0,23",0,"0,53",0,"0,64",0
Kondi,ML060109,Diré,ML0601,Tombouctou,ML06,100,0,"0,15",0,"0,66",0,"0,81",0,1,0,"0,89",0,"0,29",0,"0,46",0,"0,39",0
Sareyamou,ML060110,Diré,ML0601,Tombouctou,ML06,532,0,"0,03",0,0,0,0,0,"0,32",0,"0,91",0,"0,27",0,"0,09",0,"0,77",0
Tienkour,ML060111,Diré,ML0601,Tombouctou,ML06,186,0,"0,03",0,0,0,"0,79",0,"0,61",0,"0,88",0,"0,22",0,"0,41",0,"0,58",0
Tindirma,ML060112,Diré,ML0601,Tombouctou,ML06,184,0,"0,14",0,"0,75",0,"0,77",0,"0,86",0,"0,93",0,"0,30",0,"0,16",0,"0,44",0
Tinguereguif,ML060113,Diré,ML0601,Tombouctou,ML06,139,0,"0,02",0,0,0,"0,78",0,"0,45",0,"0,88",0,"0,16",0,"0,25",0,"0,64",0
Adarmalane,ML060201,Goundam,ML0602,Tombouctou,ML06,344,0,"0,12",0,0,0,"0,61",0,"0,93",0,"0,74",0,"0,39",0,"0,20",0,"0,57",0
Alzounoub,ML060202,Goundam,ML0602,Tombouctou,ML06,6032,0,"0,02",0,"0,15",0,"0,44",0,"0,27",0,"0,72",0,"0,47",0,0,0,"0,71",0
Bintagoungou,ML060203,Goundam,ML0602,Tombouctou,ML06,92,0,"0,06",0,0,0,"0,59",0,"0,84",0,"0,81",0,"0,38",0,"0,46",0,"0,55",0
Douékire,ML060204,Goundam,ML0602,Tombouctou,ML06,1150,0,"0,05",0,"0,37",0,"0,73",0,"0,56",0,"0,90",0,"0,43",0,"0,05",0,"0,56",0
Doukouria,ML060205,Goundam,ML0602,Tombouctou,ML06,1201,0,"0,06",0,"0,51",0,"0,88",0,"0,63",0,"0,89",0,"0,36",0,"0,07",0,"0,51",0
Essakane,ML060206,Goundam,ML0602,Tombouctou,ML06,6721,0,"0,02",0,"0,27",0,"0,87",0,"0,36",0,"0,77",0,"0,41",0,"0,03",0,"0,61",0
Gargando,ML060207,Goundam,ML0602,Tombouctou,ML06,2131,0,"0,03",0,0,0,"0,64",0,"0,49",0,"0,73",0,"0,34",0,"0,02",0,"0,68",0
Goundam,ML060208,Goundam,ML0602,Tombouctou,ML06,101,0,"0,07",0,1,0,"0,85",0,"0,58",0,"0,91",0,"0,36",0,"0,27",0,"0,42",0
Issa Béry,ML060209,Goundam,ML0602,Tombouctou,ML06,26658,0,0,0,"0,46",0,"0,60",0,"0,39",0,"0,65",0,"0,47",0,"0,04",0,"0,63",0
Kaneye,ML060210,Goundam,ML0602,Tombouctou,ML06,59,0,"0,08",0,1,0,"0,86",0,"0,83",0,"0,92",0,"0,32",0,"0,36",0,"0,37",0
M'bouna,ML060211,Goundam,ML0602,Tombouctou,ML06,296,0,"0,09",0,0,0,"0,57",0,"0,92",0,"0,89",0,"0,37",0,"0,32",0,"0,55",0
Razelma,ML060212,Goundam,ML0602,Tombouctou,ML06,42787,0,0,0,0,0,"0,58",0,"0,32",0,"0,60",0,"0,51",0,"0,05",0,"0,71",0
Télé,ML060213,Goundam,ML0602,Tombouctou,ML06,260,0,0,0,0,0,"0,60",0,"0,01",0,"0,78",0,"0,53",0,"0,38",0,"0,67",0
Tilemsi,ML060214,Goundam,ML0602,Tombouctou,ML06,6882,0,"0,03",0,"0,08",0,"0,46",0,"0,53",0,"0,78",0,"0,44",0,"0,10",0,"0,65",0
Tin Aicha,ML060215,Goundam,ML0602,Tombouctou,ML06,19458,0,0,0,"0,07",0,"0,57",0,"0,35",0,"0,66",0,"0,49",0,"0,08",0,"0,68",0
Tonka,ML060216,Goundam,ML0602,Tombouctou,ML06,764,0,"0,07",0,"0,58",0,"0,79",0,"0,70",0,"0,94",0,"0,07",0,"0,09",0,"0,54",0
Bambara Maoudé,ML060301,Gourma-Rharous,ML0603,Tombouctou,ML06,3542,0,"0,06",0,"0,27",0,"0,57",0,"0,59",0,"0,89",0,"0,39",0,"0,05",0,"0,60",0
Banikane,ML060302,Gourma-Rharous,ML0603,Tombouctou,ML06,551,0,"0,05",0,1,0,"0,75",0,"0,54",0,"0,88",0,"0,28",0,"0,08",0,"0,49",0
Gossi,ML060303,Gourma-Rharous,ML0603,Tombouctou,ML06,9801,0,"0,04",0,"0,35",0,"0,73",0,"0,55",0,"0,92",0,"0,43",0,"0,04",0,"0,56",0
Hamzakoma,ML060304,Gourma-Rharous,ML0603,Tombouctou,ML06,3274,0,"0,01",0,"0,04",0,0,0,"0,22",0,"0,82",0,"0,36",0,"0,02",0,"0,79",0
Haribomo,ML060305,Gourma-Rharous,ML0603,Tombouctou,ML06,6551,0,"0,03",0,"0,32",0,"0,53",0,"0,44",0,"0,88",0,"0,36",0,0,0,"0,63",0
Inadiatafane,ML060306,Gourma-Rharous,ML0603,Tombouctou,ML06,7258,0,"0,01",0,0,0,"0,54",0,"0,42",0,"0,79",0,"0,44",0,"0,12",0,"0,67",0
Ouinerden,ML060307,Gourma-Rharous,ML0603,Tombouctou,ML06,9915,0,"0,02",0,"0,06",0,0,0,"0,31",0,"0,89",0,"0,35",0,"0,01",0,"0,77",0
Rharous,ML060308,Gourma-Rharous,ML0603,Tombouctou,ML06,1232,0,"0,04",0,0,0,"0,50",0,"0,70",0,"0,89",0,"0,26",0,"0,04",0,"0,65",0
Sérere,ML060309,Gourma-Rharous,ML0603,Tombouctou,ML06,296,0,"0,01",0,0,0,0,0,"0,63",0,"0,91",0,"0,13",0,"0,19",0,"0,73",0
Banikane Narhawa,ML060401,Niafunké,ML0604,Tombouctou,ML06,826,0,"0,05",0,0,0,0,0,"0,56",0,"0,93",0,"0,36",0,"0,04",0,"0,72",0
Dianké,ML060402,Niafunké,ML0604,Tombouctou,ML06,873,0,"0,02",0,"0,80",0,"0,56",0,"0,31",0,"0,70",0,"0,20",0,"0,08",0,"0,62",0
Fittouga,ML060403,Niafunké,ML0604,Tombouctou,ML06,1063,0,"0,08",0,"0,10",0,0,0,"0,71",0,"0,93",0,"0,10",0,"0,07",0,"0,72",0
Koumaïra,ML060404,Niafunké,ML0604,Tombouctou,ML06,485,0,"0,08",0,0,0,0,0,"0,75",0,"0,79",0,"0,30",0,"0,14",0,"0,71",0
Léré,ML060405,Niafunké,ML0604,Tombouctou,ML06,1535,0,"0,09",0,"0,35",0,"0,52",0,"0,83",0,"0,68",0,"0,45",0,"0,18",0,"0,56",0
N'gorkou,ML060406,Niafunké,ML0604,Tombouctou,ML06,852,0,"0,05",0,0,0,0,0,"0,52",0,"0,80",0,"0,13",0,"0,03",0,"0,78",0
Souboundou,ML060407,Niafunké,ML0604,Tombouctou,ML06,1406,0,"0,08",0,"0,72",0,"0,71",0,"0,73",0,"0,77",0,"0,28",0,"0,15",0,"0,51",0
Soumpi,ML060408,Niafunké,ML0604,Tombouctou,ML06,1582,0,"0,06",0,"0,53",0,"0,61",0,"0,62",0,"0,66",0,"0,32",0,"0,03",0,"0,60",0
Alafia,ML060501,Tombouctou,ML0605,Tombouctou,ML06,1259,0,"0,09",0,"0,56",0,"0,98",0,"0,90",0,"0,86",0,"0,33",0,"0,27",0,"0,43",0
Ber,ML060502,Tombouctou,ML0605,Tombouctou,ML06,35232,0,"0,02",0,"0,27",0,"0,90",0,"0,46",0,"0,68",0,"0,73",0,"0,01",0,"0,56",0
Bourem Inaly,ML060503,Tombouctou,ML0605,Tombouctou,ML06,1232,0,"0,03",0,"0,59",0,"0,97",0,"0,54",0,"0,85",0,"0,39",0,"0,09",0,"0,51",0
Lafia,ML060504,Tombouctou,ML0605,Tombouctou,ML06,461,0,"0,07",0,0,0,"0,36",0,"0,66",0,"0,90",0,"0,38",0,"0,12",0,"0,64",0
Salam,ML060505,Tombouctou,ML0605,Tombouctou,ML06,292618,0,0,0,"0,74",0,0,0,"0,15",0,"0,71",0,"0,51",0,0,0,"0,70",0
Tombouctou,ML060506,Tombouctou,ML0605,Tombouctou,ML06,16,0,"0,69",0,"0,93",0,"0,99",0,1,0,"0,87",0,"0,23",0,"0,79",0,"0,21",0
Ansongo,ML070101,Ansongo,ML0701,Gao,ML07,448,0,"0,10",0,"0,81",0,"0,85",0,"0,93",0,"0,88",0,"0,48",0,"0,13",0,"0,40",0
Bara,ML070102,Ansongo,ML0701,Gao,ML07,1086,0,"0,04",0,"0,33",0,"0,89",0,"0,49",0,"0,91",0,"0,30",0,"0,05",0,"0,57",0
Bourra,ML070103,Ansongo,ML0701,Gao,ML07,2323,0,"0,03",0,"0,97",0,"0,88",0,"0,57",0,"0,88",0,"0,10",0,"0,01",0,"0,51",0
Ouattagouna,ML070104,Ansongo,ML0701,Gao,ML07,3038,0,"0,06",0,"0,33",0,"0,94",0,"0,66",0,"0,90",0,"0,02",0,"0,02",0,"0,58",0
Talataye,ML070105,Ansongo,ML0701,Gao,ML07,8126,0,"0,04",0,"0,86",0,"0,64",0,"0,55",0,"0,90",0,"0,41",0,"0,01",0,"0,51",0
Tessit,ML070106,Ansongo,ML0701,Gao,ML07,4853,0,"0,04",0,"0,24",0,"0,63",0,"0,41",0,"0,87",0,"0,29",0,"0,01",0,"0,64",0
Tin Hama,ML070107,Ansongo,ML0701,Gao,ML07,3482,0,"0,06",0,"0,50",0,"0,84",0,"0,71",0,"0,94",0,"0,31",0,"0,07",0,"0,51",0
Bamba,ML070201,Bourem,ML0702,Gao,ML07,4761,0,"0,01",0,1,0,"0,68",0,"0,41",0,"0,77",0,"0,15",0,"0,05",0,"0,56",0
Bourem,ML070202,Bourem,ML0702,Gao,ML07,6273,0,"0,03",0,"0,60",0,"0,82",0,"0,48",0,"0,81",0,"0,08",0,"0,01",0,"0,60",0
Taboye,ML070203,Bourem,ML0702,Gao,ML07,1447,0,"0,03",0,"0,61",0,"0,87",0,"0,55",0,"0,82",0,0,0,"0,06",0,"0,58",0
Tarkint,ML070204,Bourem,ML0702,Gao,ML07,17101,0,"0,03",0,"0,25",0,"0,73",0,"0,43",0,"0,85",0,"0,43",0,"0,01",0,"0,61",0
Téméra,ML070205,Bourem,ML0702,Gao,ML07,13050,0,"0,03",0,"0,27",0,"0,69",0,"0,42",0,"0,71",0,"0,23",0,"0,03",0,"0,66",0
Anchawadi,ML070301,Gao,ML0703,Gao,ML07,13642,0,"0,06",0,"0,40",0,"0,91",0,"0,60",0,"0,87",0,"0,20",0,"0,01",0,"0,56",0
Gabéro,ML070302,Gao,ML0703,Gao,ML07,2007,0,"0,03",0,"0,60",0,"0,94",0,"0,63",0,"0,79",0,"0,10",0,"0,11",0,"0,54",0
Gao,ML070303,Gao,ML0703,Gao,ML07,31,0,"0,56",0,"0,80",0,"0,98",0,1,0,"0,78",0,"0,75",0,"0,66",0,"0,21",0
Gounzoureye,ML070304,Gao,ML0703,Gao,ML07,616,0,"0,07",0,"0,78",0,"0,98",0,"0,83",0,"0,81",0,"0,63",0,"0,16",0,"0,39",0
N'tillit,ML070305,Gao,ML0703,Gao,ML07,12138,0,"0,04",0,"0,43",0,"0,81",0,"0,35",0,"0,88",0,"0,42",0,0,0,"0,58",0
Sony Aliber,ML070306,Gao,ML0703,Gao,ML07,980,0,"0,06",0,"0,78",0,"0,93",0,"0,72",0,"0,83",0,"0,28",0,"0,13",0,"0,47",0
Tilemsi,ML070307,Gao,ML0703,Gao,ML07,5305,0,"0,05",0,"0,29",0,"0,86",0,"0,60",0,"0,83",0,"0,42",0,"0,03",0,"0,56",0
Abéïbara,ML080101,Abeibara,ML0801,Kidal,ML08,8321,0,"0,01",0,0,0,"0,31",0,"0,20",0,"0,85",0,"0,53",0,"0,01",0,"0,73",0
Boghassa,ML080102,Abeibara,ML0801,Kidal,ML08,5313,0,"0,03",0,0,0,"0,51",0,"0,28",0,"0,85",0,"0,52",0,"0,02",0,"0,68",0
Tinzawatène,ML080103,Abeibara,ML0801,Kidal,ML08,9560,0,"0,01",0,1,0,1,0,"0,14",0,"0,74",0,"0,52",0,"0,08",0,"0,50",0
Anefif,ML080201,Kidal,ML0802,Kidal,ML08,5776,0,"0,05",0,"0,63",0,"0,58",0,"0,56",0,"0,85",0,"0,52",0,"0,03",0,"0,54",0
Essouk,ML080202,Kidal,ML0802,Kidal,ML08,2679,0,"0,04",0,0,0,"0,33",0,"0,32",0,"0,82",0,"0,54",0,"0,04",0,"0,70",0
Kidal,ML080203,Kidal,ML0802,Kidal,ML08,12567,0,"0,04",0,"0,60",0,"0,39",0,"0,43",0,"0,87",0,"0,56",0,"0,07",0,"0,58",0
Adjelhoc,ML080301,Tessalit,ML0803,Kidal,ML08,12463,0,"0,04",0,"0,59",0,"0,63",0,"0,45",0,"0,77",0,"0,51",0,"0,02",0,"0,57",0
Tessalit,ML080302,Tessalit,ML0803,Kidal,ML08,35768,0,"0,03",0,"0,53",0,"0,79",0,"0,47",0,"0,87",0,"0,51",0,"0,04",0,"0,54",0
Timtaghene,ML080303,Tessalit,ML0803,Kidal,ML08,30585,0,"0,01",0,"0,33",0,"0,51",0,"0,28",0,"0,79",0,"0,48",0,"0,04",0,"0,65",0
Tin Essako,ML080401,Tin-Essako,ML0804,Kidal,ML08,27096,0,"0,02",0,"0,57",0,"0,54",0,"0,28",0,"0,75",0,"0,52",0,"0,01",0,"0,62",0
Commune I,ML090101,Bamako,ML0901,Bamako,ML09,35,0,"0,39",0,1,0,"0,96",0,1,0,"0,81",0,"0,86",0,"0,68",0,"0,18",0
Commune II,ML090102,Bamako,ML0901,Bamako,ML09,19,0,"0,20",0,1,0,"0,96",0,1,0,"0,88",0,"0,81",0,"0,98",0,"0,17",0
Commune III,ML090103,Bamako,ML0901,Bamako,ML09,19,0,"0,57",0,1,0,"0,96",0,1,0,"0,50",0,"0,82",0,"0,87",0,"0,18",0
Commune IV,ML090104,Bamako,ML0901,Bamako,ML09,45,0,"0,28",0,1,0,"0,96",0,1,0,"0,68",0,"0,78",0,"0,74",0,"0,22",0
Commune V,ML090105,Bamako,ML0901,Bamako,ML09,36,0,"0,26",0,1,0,"0,97",0,1,0,"0,89",0,"0,75",0,"0,65",0,"0,21",0
Commune VI,ML090106,Bamako,ML0901,Bamako,ML09,91,0,"0,24",0,1,0,"0,98",0,1,0,"0,89",0,"0,89",0,"0,42",0,"0,23",0
Ménaka,ML100101,Ménaka,ML1001,Menaka,ML10,14902,0,"0,06",0,"0,63",0,"0,82",0,"0,65",0,"0,84",0,"0,43",0,"0,01",0,"0,51",0
Andéramboukane,ML100201,Anderamboukane,ML1002,Menaka,ML10,6685,0,"0,05",0,"0,92",0,"0,98",0,"0,62",0,"0,87",0,"0,48",0,"0,05",0,"0,43",0
Inékar,ML100301,Inekar,ML1003,Menaka,ML10,27139,0,"0,04",0,"0,29",0,"0,82",0,"0,48",0,"0,80",0,"0,50",0,"0,03",0,"0,58",0
Tidermène,ML100401,Tidermene,ML1004,Menaka,ML10,29190,0,"0,04",0,"0,85",0,"0,65",0,"0,46",0,"0,83",0,"0,49",0,"0,01",0,"0,52",0