adm2_fr,adm2_pcode,adm1_fr,adm1_pcode,surf_km2,pop_count,ind1_RNI,ind1_missingvalues,ind2_RCI,ind2_missingvalues,ind4_GT,ind4_missingvalues,ind7_PA,ind7_missingvalues,ind8_MI,ind8_missingvalues,ind10_SCAw,ind10_missingvalues,ind11_TR,ind11_missingvalues,LVI,LVI_missingvalues
ALTO MOLOCUE,MZ0402,ZAMBEZIA,MZ04,6375,456667,"0,20",0,"0,31",0,"0,30",0,"0,58",0,"0,42",0,"0,08",0,"0,48",0,"0,66",0
ANCUABE,MZ0202,CABO DELGADO,MZ02,4984,146400,"0,14",0,"0,93",0,"0,65",0,"0,57",0,"0,29",0,"0,45",0,"0,74",0,"0,46",0
ANGOCHE,MZ0302,NAMPULA,MZ03,3056,357861,"0,23",0,"0,43",0,"0,95",0,"0,44",0,"0,35",0,"0,35",0,"0,91",0,"0,48",0
ANGONIA,MZ0502,TETE,MZ05,3259,381559,"0,21",0,"0,22",0,"0,99",0,"0,47",0,"0,33",0,"0,06",0,"0,59",0,"0,59",0
BALAMA,MZ0203,CABO DELGADO,MZ02,5540,172513,"0,10",0,"0,71",0,"0,52",0,"0,49",0,"0,36",0,"0,16",0,"0,79",0,"0,55",0
BARUE,MZ0602,MANICA,MZ06,5770,283307,"0,14",0,"0,57",0,"0,61",0,"0,59",0,"0,60",0,"0,04",0,"0,28",0,"0,59",0
BILENE,MZ0902,GAZA,MZ09,2180,172819,"0,28",0,"0,75",0,"0,88",0,"0,81",0,"0,37",0,"0,42",0,"0,90",0,"0,37",0
BOANE,MZ1002,MAPUTO,MZ10,804,120047,"0,53",0,"0,73",0,"0,98",0,"0,96",0,"0,74",0,"0,85",0,"0,91",0,"0,18",0
BUZI,MZ0702,SOFALA,MZ07,7229,178727,"0,15",0,0,0,"0,98",0,"0,43",0,"0,28",0,"0,13",0,"0,96",0,"0,58",0
C. ILHA DE MOÇAMBIQUE,MZ0304,NAMPULA,MZ03,184,72989,"0,77",0,"0,55",0,0,1,"0,86",0,"0,37",1,"0,80",0,"0,94",0,"0,39",2
CAHORA BASSA,MZ0503,TETE,MZ05,8841,151164,"0,08",0,"0,28",0,1,0,"0,61",0,"0,51",0,"0,47",0,"0,65",0,"0,49",0
CAIA,MZ0703,SOFALA,MZ07,3585,173762,"0,13",0,"0,79",0,"0,90",0,"0,60",0,"0,35",0,"0,31",0,"0,95",0,"0,43",0
CHANGARA,MZ0504,TETE,MZ05,8857,221646,"0,12",0,"0,71",0,"0,83",0,"0,41",0,"0,31",0,"0,04",0,"0,61",0,"0,57",0
CHEMBA,MZ0704,SOFALA,MZ07,3978,89191,"0,21",0,"0,11",0,"0,75",0,"0,58",0,"0,47",0,"0,15",0,"0,89",0,"0,55",0
CHERINGOMA,MZ0705,SOFALA,MZ07,7108,65097,"0,10",0,"0,35",0,"0,62",0,"0,24",0,"0,12",0,"0,03",0,"0,87",0,"0,67",0
CHIBABAVA,MZ0706,SOFALA,MZ07,6988,159239,"0,12",0,"0,64",0,"0,56",0,"0,18",0,"0,46",0,"0,07",0,"0,92",0,"0,58",0
CHIBUTO,MZ0903,GAZA,MZ09,5603,231105,"0,21",0,"0,21",0,"0,65",0,"0,82",0,"0,20",0,"0,49",0,"0,97",0,"0,49",0
CHICUALACUALA,MZ0904,GAZA,MZ09,18065,45734,"0,11",0,"0,36",0,"0,82",0,"0,25",0,"0,25",1,"0,07",0,"0,94",0,"0,60",1
CHIFUNDE,MZ0505,TETE,MZ05,9398,259058,"0,12",0,"0,74",0,"0,49",0,"0,10",0,"0,15",0,"0,05",0,"0,35",0,"0,71",0
CHIGUBO,MZ0905,GAZA,MZ09,15029,36282,"0,12",0,"0,08",0,0,0,"0,23",0,0,0,"0,08",0,"0,99",0,"0,79",0
CHINDE,MZ0403,ZAMBEZIA,MZ04,4246,110649,"0,13",0,0,0,"0,19",0,"0,40",0,0,0,"0,22",0,"0,97",0,"0,73",0
CHIURE,MZ0204,CABO DELGADO,MZ02,5439,282513,"0,22",0,"0,33",0,"0,57",0,"0,69",0,"0,39",0,"0,24",0,"0,79",0,"0,54",0
CHIUTA,MZ0506,TETE,MZ05,7119,133076,"0,13",0,"0,64",0,0,1,"0,10",0,"0,35",0,"0,02",0,"0,32",0,"0,78",1
CHOKWE,MZ0906,GAZA,MZ09,2443,187325,"0,47",0,"0,35",0,"0,70",0,"0,91",0,"0,34",0,"0,77",0,1,0,"0,35",0
CIDADE DA BEIRA,MZ0701,SOFALA,MZ07,631,460419,"0,36",0,"0,31",0,1,0,"0,92",0,"0,45",0,0,0,"0,97",0,"0,43",0
CIDADE DA MATOLA,MZ1001,MAPUTO,MZ10,367,1232605,"0,59",0,"0,37",0,"0,96",0,"0,99",0,"0,68",0,0,0,"0,96",0,"0,35",0
CIDADE DE  PEMBA,MZ0201,CABO DELGADO,MZ02,102,263498,"0,85",0,"0,92",0,1,0,1,0,"0,59",0,"0,01",0,"0,77",0,"0,27",0
CIDADE DE CHIMOIO,MZ0601,MANICA,MZ06,174,358667,1,0,"0,74",0,"0,99",0,1,0,"0,64",0,0,0,"0,69",0,"0,28",0
CIDADE DE INHAMBANE,MZ0801,INHAMBANE,MZ08,195,77051,"0,83",0,"0,73",0,1,0,"0,98",0,"0,30",0,0,0,"0,79",0,"0,34",0
CIDADE DE MAXIXE,MZ0810,INHAMBANE,MZ08,268,123756,"0,59",0,1,0,"0,78",0,"0,96",0,"0,82",0,0,0,"0,76",0,"0,30",0
CIDADE DE NAMPULA,MZ0301,NAMPULA,MZ03,334,848178,"0,79",0,"0,43",0,"0,98",0,"0,95",0,"0,55",0,0,0,"0,72",0,"0,37",0
CIDADE DE QUELIMANE,MZ0401,ZAMBEZIA,MZ04,122,266054,"0,69",0,"0,64",0,1,0,1,0,"0,85",0,0,0,"0,97",0,"0,27",0
CIDADE DE TETE,MZ0501,TETE,MZ05,287,272497,"0,55",0,"0,65",0,1,0,"0,99",0,"0,70",0,0,0,"0,83",0,"0,33",0
CIDADE DE XAI-XAI,MZ0901,GAZA,MZ09,135,132075,"0,73",0,"0,60",0,"0,75",0,1,0,"0,54",0,0,0,"0,82",0,"0,37",0
CIDADE_DE_LICHINGA,MZ0101,NIASSA,MZ01,257,275705,"0,70",0,"0,71",0,1,0,1,0,"0,77",0,0,0,"0,49",0,"0,33",0
CUAMBA,MZ0102,NIASSA,MZ01,5359,307816,"0,19",0,"0,10",0,"0,49",0,"0,64",0,"0,55",0,"0,08",0,"0,75",0,"0,60",0
DONDO,MZ0707,SOFALA,MZ07,2308,176440,"0,18",0,"0,34",0,"0,90",0,"0,72",0,"0,48",0,"0,57",0,"0,93",0,"0,41",0
ERATI,MZ0303,NAMPULA,MZ03,5773,340713,"0,20",0,"0,19",0,"0,54",0,"0,60",0,"0,31",0,"0,12",0,"0,56",0,"0,64",0
FUNHALOURO,MZ0802,INHAMBANE,MZ08,13617,48539,"0,10",0,0,0,"0,38",0,"0,27",0,"0,16",0,"0,05",0,"0,99",0,"0,72",0
GILE,MZ0404,ZAMBEZIA,MZ04,9042,260428,"0,13",0,"0,21",0,"0,47",0,"0,40",0,"0,48",0,"0,03",0,"0,61",0,"0,67",0
GONDOLA,MZ0603,MANICA,MZ06,5766,412923,"0,21",0,"0,54",0,"0,92",0,"0,61",0,"0,33",0,"0,29",0,"0,58",0,"0,50",0
GORONGOSA,MZ0708,SOFALA,MZ07,6776,197333,"0,13",0,"0,39",0,"0,64",0,"0,40",0,"0,82",0,"0,05",0,"0,63",0,"0,56",0
GOVURO,MZ0803,INHAMBANE,MZ08,3967,41968,"0,21",0,"0,24",0,"0,72",0,"0,50",0,"0,32",0,"0,04",0,"0,96",0,"0,57",0
GUIJA,MZ0907,GAZA,MZ09,4186,102940,"0,15",0,"0,37",0,"0,68",0,"0,58",0,"0,37",0,"0,46",0,"0,99",0,"0,49",0
GURO,MZ0604,MANICA,MZ06,6925,114912,"0,15",0,"0,63",0,"0,87",0,"0,43",0,"0,67",0,"0,07",0,"0,72",0,"0,49",0
GURUE,MZ0405,ZAMBEZIA,MZ04,5664,520663,"0,13",0,"0,58",0,"0,39",0,"0,49",0,"0,23",0,"0,16",0,0,0,"0,72",0
HOMOINE,MZ0804,INHAMBANE,MZ08,1918,125782,"0,34",0,"0,30",0,"0,78",0,"0,74",0,"0,41",0,"0,03",0,"0,90",0,"0,50",0
IBO,MZ0205,CABO DELGADO,MZ02,75,12320,0,0,0,1,0,1,"0,61",1,"0,42",1,"0,73",0,"0,97",0,"0,61",4
ILE,MZ0406,ZAMBEZIA,MZ04,5662,408625,"0,20",0,"0,42",0,"0,24",0,"0,52",0,"0,05",0,"0,09",0,"0,53",0,"0,71",0
INHARRIME,MZ0805,INHAMBANE,MZ08,2748,127240,"0,24",0,"0,49",0,"0,69",0,"0,73",0,"0,13",0,"0,04",0,"0,87",0,"0,54",0
INHASSORO,MZ0806,INHAMBANE,MZ08,4746,56905,"0,16",0,"0,34",0,"0,80",0,"0,50",0,"0,28",0,"0,03",0,"0,97",0,"0,56",0
INHASSUNGE,MZ0407,ZAMBEZIA,MZ04,757,92414,"0,34",0,"0,51",0,0,1,"0,81",0,0,0,"0,23",0,"0,94",0,"0,59",1
JANGAMO,MZ0807,INHAMBANE,MZ08,1293,108198,"0,40",0,"0,37",0,"0,85",0,"0,80",0,"0,33",0,"0,19",0,"0,82",0,"0,46",0
LAGO,MZ0103,NIASSA,MZ01,6595,142954,"0,19",0,"0,05",0,"0,99",0,"0,51",0,"0,55",0,"0,21",0,"0,31",0,"0,60",0
LALAUA,MZ0305,NAMPULA,MZ03,4562,105659,"0,21",0,0,0,"0,35",0,"0,40",0,"0,82",0,"0,01",0,"0,62",0,"0,66",0
LICHINGA,MZ0104,NIASSA,MZ01,5422,170083,"0,18",0,"0,67",0,"0,92",0,"0,59",0,"0,58",0,"0,13",0,"0,33",0,"0,51",0
LUGELA,MZ0408,ZAMBEZIA,MZ04,6146,187741,"0,14",0,"0,42",0,"0,48",0,"0,14",0,"0,52",0,"0,05",0,"0,27",0,"0,71",0
MABALANE,MZ0908,GAZA,MZ09,8922,41462,"0,12",0,"0,46",0,"0,38",0,"0,22",0,0,0,"0,10",0,"0,98",0,"0,68",0
MABOTE,MZ0808,INHAMBANE,MZ08,15326,47881,"0,11",0,0,0,"0,47",0,"0,26",0,"0,11",0,"0,01",0,"0,98",0,"0,72",0
MACANGA,MZ0507,TETE,MZ05,7192,354328,"0,10",0,"0,82",0,"0,99",0,"0,29",0,"0,43",0,"0,06",0,"0,10",0,"0,60",0
MACHANGA,MZ0709,SOFALA,MZ07,5715,60083,"0,11",0,"0,27",0,"0,74",0,"0,32",0,"0,13",0,"0,05",0,"0,96",0,"0,63",0
MACHAZE,MZ0605,MANICA,MZ06,13286,149782,"0,08",0,"0,23",0,"0,65",0,"0,11",0,"0,37",0,"0,02",0,"0,91",0,"0,66",0
MACOMIA,MZ0206,CABO DELGADO,MZ02,4252,99087,"0,17",0,"0,32",0,"0,56",0,"0,64",0,"0,42",1,"0,33",0,"0,73",0,"0,55",1
MACOSSA,MZ0606,MANICA,MZ06,9558,66305,"0,11",0,"0,07",0,"0,46",0,"0,22",0,"0,56",0,"0,05",0,"0,79",0,"0,68",0
MAGANJA DA COSTA,MZ0409,ZAMBEZIA,MZ04,7674,354491,"0,15",0,"0,40",0,"0,68",0,"0,34",0,0,0,"0,07",0,"0,83",0,"0,65",0
MAGOE,MZ0508,TETE,MZ05,8554,149792,"0,11",0,0,0,"0,96",0,"0,20",0,"0,85",0,"0,14",0,"0,89",0,"0,55",0
MAGUDE,MZ1003,MAPUTO,MZ10,6961,71153,"0,20",0,"0,11",0,"0,93",0,"0,58",0,"0,19",0,"0,14",0,"0,96",0,"0,56",0
MAJUNE,MZ0105,NIASSA,MZ01,11327,50284,"0,08",0,"0,53",0,"0,58",0,"0,33",0,"0,22",0,"0,02",0,"0,70",0,"0,65",0
MALEMA,MZ0306,NAMPULA,MZ03,6082,231485,"0,21",0,"0,35",0,"0,23",0,"0,56",0,"0,45",0,"0,15",0,"0,36",0,"0,67",0
MANDIMBA,MZ0106,NIASSA,MZ01,4688,241933,"0,15",0,"0,18",0,"0,99",0,"0,59",0,"0,18",0,"0,14",0,"0,82",0,"0,56",0
MANDLAKAZE,MZ0909,GAZA,MZ09,3685,176134,"0,18",0,"0,61",0,"0,57",0,"0,67",0,"0,18",0,"0,39",0,"0,89",0,"0,50",0
MANHIÇA,MZ1004,MAPUTO,MZ10,2364,193275,"0,31",0,"0,53",0,"0,82",0,"0,91",0,"0,30",0,"0,69",0,"0,91",0,"0,36",0
MANICA,MZ0607,MANICA,MZ06,4383,331352,"0,40",0,"0,27",0,"0,92",0,"0,80",0,"0,67",0,"0,43",0,"0,28",0,"0,46",0
MARAVIA,MZ0509,TETE,MZ05,16697,152520,"0,08",0,0,0,"0,98",0,0,0,1,0,"0,06",0,"0,36",0,"0,64",0
MARINGUE,MZ0710,SOFALA,MZ07,6149,108774,"0,19",0,"0,20",0,"0,40",0,"0,48",0,"0,73",0,"0,09",0,"0,88",0,"0,58",0
MARRACUENE,MZ1005,MAPUTO,MZ10,697,243359,"0,46",0,"0,35",0,"0,90",0,"0,97",0,"0,81",0,"0,01",0,"0,88",0,"0,37",0
MARROMEU,MZ0711,SOFALA,MZ07,5761,222820,"0,07",0,"0,61",0,"0,59",0,"0,32",0,"0,22",0,"0,02",0,"0,95",0,"0,60",0
MARRUPA,MZ0107,NIASSA,MZ01,17546,81969,"0,06",0,"0,28",0,"0,97",0,"0,47",0,"0,45",0,"0,02",0,"0,66",0,"0,58",0
MASSANGENA,MZ0910,GAZA,MZ09,7539,19227,"0,07",0,0,0,"0,48",0,"0,43",0,"0,46",0,"0,01",0,"0,97",0,"0,65",0
MASSINGA,MZ0809,INHAMBANE,MZ08,7410,183850,"0,17",0,"0,24",0,"0,56",0,"0,67",0,"0,25",0,0,0,"0,93",0,"0,60",0
MASSINGIR,MZ0911,GAZA,MZ09,5681,37885,"0,14",0,"0,32",0,"0,56",0,"0,47",0,"0,10",0,"0,10",0,"0,88",0,"0,63",0
MATUTUINE,MZ1006,MAPUTO,MZ10,5338,39277,"0,23",0,"0,38",0,"0,81",0,"0,60",0,"0,16",0,"0,19",0,"0,88",0,"0,54",0
MAUA,MZ0108,NIASSA,MZ01,8079,69101,"0,12",0,0,0,"0,66",0,"0,25",0,"0,41",0,"0,02",0,"0,69",0,"0,69",0
MAVAGO,MZ0109,NIASSA,MZ01,9219,39440,"0,08",0,0,0,0,1,"0,13",0,"0,74",0,0,0,"0,58",0,"0,78",1
MECANHELAS,MZ0110,NIASSA,MZ01,5021,440918,"0,20",0,0,0,"0,20",0,"0,58",0,"0,41",0,0,0,"0,72",0,"0,70",0
MECONTA,MZ0307,NAMPULA,MZ03,3721,215970,"0,28",0,"0,42",0,"0,83",0,"0,75",0,"0,26",0,"0,82",0,"0,77",0,"0,41",0
MECUBURI,MZ0308,NAMPULA,MZ03,7257,226828,"0,16",0,"0,35",0,"0,75",0,"0,45",0,"0,29",0,"0,24",0,"0,67",0,"0,58",0
MECUFI,MZ0207,CABO DELGADO,MZ02,1254,62889,"0,20",0,"0,84",0,"0,85",0,"0,85",0,"0,31",0,"0,20",0,"0,76",0,"0,43",0
MECULA,MZ0111,NIASSA,MZ01,18114,19018,"0,07",0,0,0,"0,53",0,"0,05",0,"0,55",1,0,0,"0,75",0,"0,72",1
MELUCO,MZ0208,CABO DELGADO,MZ02,5799,26555,"0,13",0,"0,17",0,"0,34",0,"0,50",0,"0,42",1,"0,08",0,"0,70",0,"0,67",1
MEMBA,MZ0309,NAMPULA,MZ03,4517,358798,"0,32",0,"0,07",0,"0,72",0,"0,65",0,"0,26",0,"0,13",0,"0,68",0,"0,60",0
METARICA,MZ0112,NIASSA,MZ01,4877,48498,"0,10",0,0,0,"0,43",0,"0,32",0,"0,74",0,"0,05",0,"0,78",0,"0,65",0
MILANGE,MZ0410,ZAMBEZIA,MZ04,9842,863212,"0,17",0,0,0,"0,98",0,"0,53",0,"0,28",0,"0,03",0,"0,55",0,"0,64",0
MOAMBA,MZ1007,MAPUTO,MZ10,4577,78108,"0,32",0,"0,26",0,"0,87",0,"0,79",0,"0,17",0,"0,36",0,"0,90",0,"0,48",0
MOATIZE,MZ0510,TETE,MZ05,8428,565549,"0,15",0,"0,68",0,"0,06",0,"0,55",0,"0,43",0,"0,16",0,"0,53",0,"0,63",0
MOCIMBOA DA PRAIA,MZ0209,CABO DELGADO,MZ02,3524,120171,"0,19",0,"0,42",0,"0,99",0,"0,64",0,"0,42",1,"0,11",0,"0,81",0,"0,49",1
MOCUBA,MZ0411,ZAMBEZIA,MZ04,8803,465469,"0,15",0,"0,28",0,"0,58",0,"0,60",0,"0,72",0,"0,04",0,"0,72",0,"0,56",0
MOGINCUAL,MZ0310,NAMPULA,MZ03,4464,243233,"0,22",0,"0,16",0,"0,71",0,"0,47",0,"0,46",0,"0,43",0,"0,82",0,"0,53",0
MOGOVOLAS,MZ0311,NAMPULA,MZ03,4760,455747,"0,21",0,"0,15",0,"0,74",0,"0,57",0,"0,28",0,"0,19",0,"0,77",0,"0,59",0
MOMA,MZ0312,NAMPULA,MZ03,5814,438231,"0,25",0,0,0,"0,99",0,"0,60",0,"0,44",0,"0,26",0,"0,90",0,"0,51",0
MONAPO,MZ0313,NAMPULA,MZ03,3564,459330,"0,24",0,"0,40",0,"0,85",0,"0,72",0,"0,17",0,"0,35",0,"0,82",0,"0,49",0
MONTEPUEZ,MZ0210,CABO DELGADO,MZ02,17964,279632,"0,06",0,"0,31",0,"0,33",0,"0,70",0,"0,72",0,"0,22",0,"0,78",0,"0,55",0
MOPEIA,MZ0412,ZAMBEZIA,MZ04,7671,214371,"0,13",0,"0,41",0,"0,62",0,"0,42",0,"0,73",0,"0,03",0,"0,90",0,"0,54",0
MORRUMBALA,MZ0413,ZAMBEZIA,MZ04,12801,598125,"0,16",0,"0,01",0,"0,62",0,"0,46",0,"0,42",0,"0,04",0,"0,68",0,"0,66",0
MORRUMBENE,MZ0811,INHAMBANE,MZ08,2580,137672,"0,33",0,"0,44",0,"0,69",0,"0,84",0,"0,11",0,"0,09",0,"0,90",0,"0,51",0
MOSSURIL,MZ0314,NAMPULA,MZ03,3433,149250,"0,29",0,"0,08",0,"0,86",0,"0,58",0,"0,35",0,"0,08",0,"0,83",0,"0,56",0
MOSSURIZE,MZ0608,MANICA,MZ06,5019,348654,"0,12",0,"0,82",0,"0,98",0,"0,21",0,"0,46",0,"0,08",0,"0,35",0,"0,57",0
MUANZA,MZ0712,SOFALA,MZ07,7513,51348,"0,07",0,0,0,"0,60",0,"0,06",0,"0,13",0,"0,01",0,"0,87",0,"0,75",0
MUECATE,MZ0315,NAMPULA,MZ03,4154,155196,"0,17",0,"0,21",0,"0,77",0,"0,41",0,"0,53",0,"0,16",0,"0,70",0,"0,58",0
MUEDA,MZ0211,CABO DELGADO,MZ02,11343,157421,"0,13",0,"0,16",0,"0,99",0,"0,46",0,"0,42",1,"0,09",0,"0,74",0,"0,57",1
MUEMBE,MZ0113,NIASSA,MZ01,5811,50836,"0,11",0,"0,07",0,"0,76",0,"0,41",0,"0,84",0,"0,04",0,"0,21",0,"0,65",0
MUIDUMBE,MZ0212,CABO DELGADO,MZ02,2123,91188,"0,18",0,"0,86",0,"0,83",0,"0,61",0,"0,42",1,"0,20",0,"0,51",0,"0,48",1
MURRUPULA,MZ0316,NAMPULA,MZ03,3119,221494,"0,22",0,"0,32",0,"0,74",0,"0,59",0,"0,06",0,"0,08",0,"0,59",0,"0,63",0
MUTARARA,MZ0511,TETE,MZ05,6367,450310,"0,27",0,"0,41",0,"0,86",0,"0,62",0,"0,34",0,"0,14",0,"0,66",0,"0,53",0
NACALA-A-VELHA,MZ0318,NAMPULA,MZ03,1151,108420,"0,29",0,"0,56",0,"0,89",0,"0,78",0,"0,31",0,"0,09",0,"0,77",0,"0,47",0
NACALA-PORTO,MZ0317,NAMPULA,MZ03,324,298616,"0,58",0,"0,37",0,"0,91",0,"0,89",0,"0,65",0,0,0,"0,81",0,"0,40",0
NACAROA,MZ0319,NAMPULA,MZ03,2749,152914,"0,14",0,"0,64",0,"0,81",0,"0,42",0,0,0,"0,09",0,"0,76",0,"0,59",0
NAMAACHA,MZ1008,MAPUTO,MZ10,2150,57409,"0,31",0,"0,79",0,"0,98",0,"0,83",0,"0,65",0,"0,06",0,"0,49",0,"0,41",0
NAMACURRA,MZ0414,ZAMBEZIA,MZ04,2028,229676,"0,21",0,"0,59",0,"0,84",0,"0,65",0,"0,04",0,"0,13",0,"0,90",0,"0,52",0
NAMARROI,MZ0415,ZAMBEZIA,MZ04,3071,186329,"0,18",0,0,0,"0,37",0,"0,35",0,0,0,"0,05",0,"0,34",0,"0,81",0
NAMUNO,MZ0213,CABO DELGADO,MZ02,6037,259305,"0,13",0,0,0,"0,38",0,"0,52",0,"0,41",0,"0,23",0,"0,85",0,"0,64",0
NANGADE,MZ0214,CABO DELGADO,MZ02,3005,93837,"0,10",0,"0,63",0,"0,71",0,"0,12",0,"0,42",1,"0,05",0,"0,81",0,"0,60",1
NGAUMA,MZ0114,NIASSA,MZ01,3009,152160,"0,20",0,"0,32",0,"0,81",0,"0,59",0,"0,41",0,"0,07",0,"0,49",0,"0,59",0
NHAMATANDA,MZ0713,SOFALA,MZ07,4013,354507,"0,19",0,"0,45",0,"0,68",0,"0,52",0,"0,22",0,"0,09",0,"0,91",0,"0,56",0
NICOADALA,MZ0416,ZAMBEZIA,MZ04,3392,289165,"0,15",0,"0,70",0,"0,88",0,"0,56",0,"0,12",0,"0,10",0,"0,89",0,"0,51",0
NIPEPE,MZ0115,NIASSA,MZ01,5031,38470,"0,10",0,0,0,"0,63",0,"0,07",0,"0,81",0,"0,02",0,"0,77",0,"0,66",0
PALMA,MZ0215,CABO DELGADO,MZ02,3569,60328,"0,22",0,0,0,1,0,"0,59",0,"0,42",1,"0,21",0,"0,88",0,"0,53",1
PANDA,MZ0812,INHAMBANE,MZ08,6841,47747,"0,14",0,"0,20",0,"0,62",0,"0,40",0,"0,29",1,"0,05",0,"0,96",0,"0,62",1
PEBANE,MZ0417,ZAMBEZIA,MZ04,10182,281969,"0,14",0,"0,12",0,"0,99",0,"0,33",0,"0,39",0,"0,08",0,"0,84",0,"0,59",0
PEMBA,MZ0216,CABO DELGADO,MZ02,1612,105765,"0,11",0,"0,25",0,"0,87",0,"0,77",0,"0,26",0,1,0,"0,80",0,"0,42",0
QUISSANGA,MZ0217,CABO DELGADO,MZ02,2150,43938,"0,20",0,"0,06",0,"0,63",0,"0,61",0,"0,42",1,"0,54",0,"0,81",0,"0,53",1
RAPALE-NAMPULA,MZ0320,NAMPULA,MZ03,3698,389863,"0,28",0,"0,46",0,"0,94",0,"0,65",0,"0,21",0,"0,40",0,"0,53",0,"0,50",0
RIBAUE,MZ0321,NAMPULA,MZ03,6292,311378,"0,21",0,"0,32",0,"0,57",0,"0,60",0,"0,58",0,"0,29",0,"0,40",0,"0,58",0
SANGA,MZ0116,NIASSA,MZ01,12511,83724,"0,09",0,"0,25",0,"0,79",0,"0,54",0,"0,63",0,"0,26",0,"0,55",0,"0,56",0
SUSSUNDENGA,MZ0609,MANICA,MZ06,7107,197768,"0,16",0,"0,62",0,"0,86",0,"0,45",0,"0,37",0,"0,10",0,"0,17",0,"0,61",0
TAMBARA,MZ0610,MANICA,MZ06,4283,58062,"0,17",0,0,0,"0,61",0,"0,54",0,"0,72",0,"0,13",0,"0,72",0,"0,59",0
TSANGANO,MZ0512,TETE,MZ05,3661,313215,"0,24",0,"0,42",0,"0,80",0,"0,71",0,"0,40",0,"0,07",0,"0,29",0,"0,58",0
VILANKULO,MZ0813,INHAMBANE,MZ08,5856,167195,"0,17",0,"0,45",0,"0,99",0,"0,54",0,"0,24",0,"0,07",0,"0,94",0,"0,52",0
XAI-XAI,MZ0912,GAZA,MZ09,1865,271830,"0,27",0,"0,54",0,"0,70",0,"0,79",0,"0,24",0,"0,36",0,"0,81",0,"0,47",0
ZAVALA,MZ0814,INHAMBANE,MZ08,2011,148908,"0,33",0,"0,49",0,"0,55",0,"0,76",0,"0,35",0,"0,05",0,"0,83",0,"0,52",0
ZUMBU,MZ0513,TETE,MZ05,12001,118204,"0,08",0,0,0,"0,99",0,"0,15",0,"0,61",0,"0,04",0,"0,44",0,"0,67",0
MAPUTO CITY - DISTRITO URBANO,MZ1101,MAPUTO,MZ10,347,1143594,"0,93",0,"0,50",0,"0,99",0,"0,99",0,"0,77",0,0,0,"0,86",0,"0,28",0